Place,Name,Sex,Event,Division,WeightClassKg,Equipment,BirthYear,State,BodyweightKg,Squat1Kg,Squat2Kg,Squat3Kg,Best3SquatKg,Bench1Kg,Bench2Kg,Bench3Kg,Best3BenchKg,Deadlift1Kg,Deadlift2Kg,Deadlift3Kg,Best3DeadliftKg,TotalKg
1,Lori Wilson,F,B,FR-M1,84+,Raw,1972,NC,116.80,,,,,100,110,112.5,112.5,,,,,112.5
2,Sarah Johnson,F,B,FR-M1,84+,Raw,1973,NC,109.70,,,,,67.5,70,-72.5,70.0,,,,,70
1,Courtney Peterman,F,B,FR-O,63,Raw,1988,NC,62.90,,,,,52.5,-57.5,57.5,57.5,,,,,57.5
1,Allison Schwartz,F,B,FR-O,72,Raw,1989,NC,66.10,,,,,47.5,55,,55.0,,,,,55
2,Lydia Sisco,F,B,FR-O,72,Raw,1998,NC,66.50,,,,,45,50,55,55.0,,,,,55
1,Holli Mann,F,B,FR-O,84,Raw,1985,NC,79.90,,,,,65,70,-72.5,70.0,,,,,70
2,Ivey Amburgey,F,B,FR-O,84,Raw,1991,NC,76.10,,,,,60,-62.5,62.5,62.5,,,,,62.5
1,Lori Wilson,F,B,FR-O,84+,Raw,1972,NC,116.80,,,,,100,110,112.5,112.5,,,,,112.5
2,Michelle Jordan,F,B,FR-O,84+,Raw,1986,NC,92.90,,,,,62.5,65,70,70.0,,,,,70
3,Sarah Johnson,F,B,FR-O,84+,Raw,1973,NC,109.70,,,,,67.5,70,-72.5,70.0,,,,,70
1,Curtis Smith,M,B,MR-M2,83,Raw,1966,SC,81.30,,,,,120,127.5,-135,127.5,,,,,127.5
1,Kodiak Moses,M,B,MR-O,66,Raw,1997,NC,65.00,,,,,135,137.5,-140,137.5,,,,,137.5
1,Joshua Singh,M,B,MR-O,74,Raw,1993,NY,74.00,,,,,120,127.5,130,130.0,,,,,130
1,James O'Neill,M,B,MR-O,83,Raw,1991,NC,80.30,,,,,145,150,160,160.0,,,,,160
2,Curtis Smith,M,B,MR-O,83,Raw,1966,SC,81.30,,,,,120,127.5,-135,127.5,,,,,127.5
1,Josh Leonard,M,B,MR-O,93,Raw,1983,NC,91.50,,,,,167.5,175,182.5,182.5,,,,,182.5
1,Max Short,M,B,MR-T1,74,Raw,2003,NC,70.70,,,,,100,112.5,-115,112.5,,,,,112.5
1,Julia Hoang,F,SBD,FR-Jr,47,Raw,1997,NC,45.60,82.5,-87.5,-92.5,82.5,37.5,40,-42.5,40.0,117.5,125,-130,125.0,247.5
1,Brooke Moore,F,SBD,FR-Jr,57,Raw,1996,NC,57.00,80,85,92.5,92.5,35,37.5,-42.5,37.5,110,-115,-117.5,110.0,240
1,Kayla Crusen,F,SBD,FR-Jr,84,Raw,1996,NC,82.90,100,115,-120,115.0,-55,-55,55,55.0,105,117.5,-125,117.5,287.5
1,Michele Moe,F,SBD,FR-M1,72,Raw,1969,NC,64.00,92.5,100,105,105.0,57.5,60,-62.5,60.0,135,142.5,-147.5,142.5,307.5
2,Holly Talton,F,SBD,FR-M1,72,Raw,1978,NC,68.60,50,55,60,60.0,32.5,37.5,40,40.0,85,92.5,97.5,97.5,197.5
1,Jes Williams,F,SBD,FR-M1,84,Raw,1977,SC,82.80,102.5,112.5,122.5,122.5,50,55,-60,55.0,125,135,-145,135.0,312.5
1,Christie Omar,F,SBD,FR-M1,84+,Raw,1972,NC,95.30,100,115,-120,115.0,57.5,67.5,-70,67.5,125,140,152.5,152.5,335
2,Sarah Johnson,F,SBD,FR-M1,84+,Raw,1973,NC,109.70,67.5,70,77.5,77.5,67.5,70,-72.5,70.0,72.5,82.5,92.5,92.5,240
1,Julia Hoang,F,SBD,FR-O,47,Raw,1997,NC,45.60,82.5,-87.5,-92.5,82.5,37.5,40,-42.5,40.0,117.5,125,-130,125.0,247.5
1,Helena Wu,F,SBD,FR-O,57,Raw,1998,NJ,56.60,102.5,112.5,117.5,117.5,62.5,67.5,-72.5,67.5,157.5,170,177.5,177.5,362.5
2,Jennifer Palumbo,F,SBD,FR-O,57,Raw,1982,NC,55.20,85,90,92.5,92.5,-50,50,-52.5,50.0,105,110,115,115.0,257.5
3,Brooke Moore,F,SBD,FR-O,57,Raw,1996,NC,57.00,80,85,92.5,92.5,35,37.5,-42.5,37.5,110,-115,-117.5,110.0,240
1,Robyn Machado,F,SBD,FR-O,63,Raw,1986,NC,60.40,-140,140,145,145.0,82.5,87.5,90,90.0,152.5,162.5,165,165.0,400
2,Elizabeth Forsythe,F,SBD,FR-O,63,Raw,1992,NC,62.20,92.5,97.5,102.5,102.5,67.5,72.5,75,75.0,115,122.5,132.5,132.5,310
3,Jerri Lamar,F,SBD,FR-O,63,Raw,1989,NC,60.60,102.5,110,-115,110.0,50,-55,55,55.0,112.5,120,125,125.0,290
4,Kristi Thiha,F,SBD,FR-O,63,Raw,1988,NC,62.60,82.5,90,95,95.0,47.5,50,-55,50.0,127.5,132.5,-137.5,132.5,277.5
5,Gabrielle Dardis,F,SBD,FR-O,63,Raw,1995,NC,58.60,82.5,-87.5,87.5,87.5,55,57.5,-60,57.5,102.5,110,112.5,112.5,257.5
6,Courtney Peterman,F,SBD,FR-O,63,Raw,1988,NC,62.90,80,82.5,-90,82.5,52.5,-57.5,57.5,57.5,102.5,107.5,-110,107.5,247.5
1,Michele Moe,F,SBD,FR-O,72,Raw,1969,NC,64.00,92.5,100,105,105.0,57.5,60,-62.5,60.0,135,142.5,-147.5,142.5,307.5
2,Allison Schwartz,F,SBD,FR-O,72,Raw,1989,NC,66.10,90,100,107.5,107.5,47.5,55,,55.0,107.5,115,120,120.0,282.5
3,Katie Rancer,F,SBD,FR-O,72,Raw,1998,NC,71.30,70,77.5,87.5,87.5,60,65,67.5,67.5,70,77.5,-87.5,77.5,232.5
4,Holly Talton,F,SBD,FR-O,72,Raw,1978,NC,68.60,50,55,60,60.0,32.5,37.5,40,40.0,85,92.5,97.5,97.5,197.5
1,Erin Kaplan,F,SBD,FR-O,84,Raw,1984,NC,80.40,115,125,135,135.0,70,77.5,-82.5,77.5,130,-145,-145,130.0,342.5
2,Holli Mann,F,SBD,FR-O,84,Raw,1985,NC,79.90,-117.5,117.5,120,120.0,65,70,-72.5,70.0,130,137.5,142.5,142.5,332.5
3,Aubrie Harland,F,SBD,FR-O,84,Raw,1988,MI,79.70,115,122.5,-127.5,122.5,55,60,-65,60.0,127.5,137.5,145,145.0,327.5
4,Erin Mena,F,SBD,FR-O,84,Raw,1988,NC,77.80,-120,125,-135,125.0,57.5,60,65,65.0,120,125,130,130.0,320
5,Stephanie Mitchell,F,SBD,FR-O,84,Raw,1979,NC,75.30,-102.5,102.5,107.5,107.5,57.5,62.5,65,65.0,132.5,140,145,145.0,317.5
6,Jes Williams,F,SBD,FR-O,84,Raw,1977,SC,82.80,102.5,112.5,122.5,122.5,50,55,-60,55.0,125,135,-145,135.0,312.5
7,Ivey Amburgey,F,SBD,FR-O,84,Raw,1991,NC,76.10,100,107.5,110,110.0,60,-62.5,62.5,62.5,125,130,137.5,137.5,310
8,Diana Gottschalk,F,SBD,FR-O,84,Raw,1987,MS,73.10,80,90,100,100.0,60,65,-72.5,65.0,100,112.5,127.5,127.5,292.5
9,Kayla Crusen,F,SBD,FR-O,84,Raw,1996,NC,82.90,100,115,-120,115.0,-55,-55,55,55.0,105,117.5,-125,117.5,287.5
1,Michelle Jordan,F,SBD,FR-O,84+,Raw,1986,NC,92.90,132.5,142.5,160,160.0,62.5,65,70,70.0,142.5,160,172.5,172.5,402.5
2,Christie Omar,F,SBD,FR-O,84+,Raw,1972,NC,95.30,100,115,-120,115.0,57.5,67.5,-70,67.5,125,140,152.5,152.5,335
3,Nicole Mason #2,F,SBD,FR-O,84+,Raw,1983,NC,95.80,97.5,102.5,107.5,107.5,55,60,65,65.0,102.5,107.5,112.5,112.5,285
4,Sarah Johnson,F,SBD,FR-O,84+,Raw,1973,NC,109.70,67.5,70,77.5,77.5,67.5,70,-72.5,70.0,72.5,82.5,92.5,92.5,240
1,India Allan,F,SBD,FR-T2,57,Raw,2001,NC,53.20,35,-42.5,-50,35.0,35,40,-45,40.0,65,77.5,82.5,82.5,157.5
1,Madison Nester,F,SBD,FR-T2,72,Raw,2001,NC,65.30,62.5,72.5,82.5,82.5,-45,47.5,50,50.0,90,105,120,120.0,252.5
1,Kodiak Moses,M,SBD,MR-Jr,66,Raw,1997,NC,65.00,182.5,185,187.5,187.5,135,137.5,-140,137.5,182.5,197.5,205,205.0,530
1,Colby Wright,M,SBD,MR-Jr,74,Raw,1998,SC,68.20,147.5,157.5,165,165.0,110,115,120,120.0,175,185,192.5,192.5,477.5
2,Ryan Guzman,M,SBD,MR-Jr,74,Raw,1995,NC,70.10,125,135,142.5,142.5,90,97.5,105,105.0,140,-147.5,-147.5,140.0,387.5
1,Tyler Desmarais,M,SBD,MR-Jr,83,Raw,1995,NC,80.80,177.5,190,200,200.0,-115,125,-132.5,125.0,212.5,225,245,245.0,570
2,Garrett Smith,M,SBD,MR-Jr,83,Raw,1998,NC,81.60,185,195,202.5,202.5,132.5,-137.5,-137.5,132.5,210,222.5,232.5,232.5,567.5
3,Alessio Zisa,M,SBD,MR-O,83,Raw,1993,NJ,82.00,172.5,182.5,192.5,192.5,122.5,137.5,142.5,142.5,165,175,187.5,187.5,522.5
1,Jacob Higgins,M,SBD,MR-Jr,93,Raw,1997,NC,88.90,195,212.5,-220,212.5,120,125,-132.5,125.0,195,207.5,217.5,217.5,555
1,Richard Lowery,M,SBD,MR-Jr,105,Raw,1998,SC,105.00,162.5,170,177.5,177.5,130,137.5,142.5,142.5,175,187.5,197.5,197.5,517.5
1,Ikechukwu Onuoha,M,SBD,MR-Jr,120,Raw,1997,NC,114.00,202.5,215,225,225.0,180,192.5,200,200.0,265,290,305,305.0,730
2,Nolasco Stevens Jr,M,SBD,MR-Jr,120,Raw,1998,SC,116.90,247.5,262.5,272.5,272.5,130,140,-145,140.0,260,277.5,-287.5,277.5,690
1,Jim Nettles,M,SBD,MR-M1,93,Raw,1974,NC,91.80,160,170,182.5,182.5,95,105,-115,105.0,150,165,185,185.0,472.5
1,Jeff Carver,M,SBD,MR-M1,120,Raw,1969,NC,118.40,185,202.5,210,210.0,127.5,142.5,-150,142.5,185,200,-210,200.0,552.5
1,John Hill,M,SBD,MR-M2,105,Raw,1966,NC,101.30,165,180,187.5,187.5,122.5,132.5,140,140.0,197.5,215,-225,215.0,542.5
2,Michael Soos,M,SBD,MR-M2,105,Raw,1965,NC,98.90,147.5,160,-175,160.0,85,-92.5,-92.5,85.0,160,180,195,195.0,440
1,John Stone,M,SBD,MR-M2,120,Raw,1968,NC,110.00,160,170,177.5,177.5,85,87.5,92.5,92.5,170,185,192.5,192.5,462.5
1,Kodiak Moses,M,SBD,MR-O,66,Raw,1997,NC,65.00,182.5,185,187.5,187.5,135,137.5,-140,137.5,182.5,197.5,205,205.0,530
2,Jovy Kim,M,SBD,MR-O,66,Raw,1990,NC,65.00,160,170,172.5,172.5,107.5,-115,115,115.0,187.5,197.5,202.5,202.5,490
3,Daniel Carrillo,M,SBD,MR-O,66,Raw,1998,SC,66.00,132.5,140,145,145.0,77.5,80,82.5,82.5,172.5,180,182.5,182.5,410
1,Christopher Wright,M,SBD,MR-O,74,Raw,1992,NC,74.00,190,195,200,200.0,130,135,137.5,137.5,240,250,260,260.0,597.5
2,Royce Chen,M,SBD,MR-O,74,Raw,1998,CA,72.70,202.5,212.5,-220,212.5,127.5,135,140,140.0,200,212.5,225,225.0,577.5
3,Christian Hoffman,M,SBD,MR-O,74,Raw,1996,NC,73.10,170,177.5,187.5,187.5,102.5,-110,110,110.0,220,227.5,-235,227.5,525
4,Gene Sosankin,M,SBD,MR-O,74,Raw,1996,NC,73.20,157.5,165,170,170.0,117.5,125,130,130.0,205,212.5,-220,212.5,512.5
5,Mike Jordan,M,SBD,MR-O,74,Raw,1990,NC,74.00,132.5,145,152.5,152.5,120,-132.5,-132.5,120.0,152.5,175,187.5,187.5,460
6,Jacob Larson,M,SBD,MR-O,74,Raw,1993,NC,72.70,120,130,-137.5,130.0,82.5,87.5,-92.5,87.5,152.5,165,180,180.0,397.5
7,Ryan Guzman,M,SBD,MR-O,74,Raw,1995,NC,70.10,125,135,142.5,142.5,90,97.5,105,105.0,140,-147.5,-147.5,140.0,387.5
1,Jack Powers,M,SBD,MR-O,83,Raw,1995,NC,82.30,210,220,-227.5,220.0,-135,135,137.5,137.5,250,262.5,272.5,272.5,630
2,James O'Neill,M,SBD,MR-O,83,Raw,1991,NC,80.30,192.5,197.5,200,200.0,145,150,160,160.0,230,237.5,245,245.0,605
3,Terry Zervos,M,SBD,MR-O,83,Raw,1997,NC,81.70,180,190,200,200.0,135,142.5,147.5,147.5,202.5,217.5,230,230.0,577.5
4,Tyler Desmarais,M,SBD,MR-O,83,Raw,1995,NC,80.80,177.5,190,200,200.0,-115,125,-132.5,125.0,212.5,225,245,245.0,570
5,Garrett Smith,M,SBD,MR-O,83,Raw,1998,NC,81.60,185,195,202.5,202.5,132.5,-137.5,-137.5,132.5,210,222.5,232.5,232.5,567.5
6,Alessio Zisa,M,SBD,MR-O,83,Raw,1993,NJ,82.00,172.5,182.5,192.5,192.5,122.5,137.5,142.5,142.5,165,175,187.5,187.5,522.5
7,Matthew Martin,M,SBD,MR-O,83,Raw,1990,NC,81.50,162.5,170,180,180.0,102.5,107.5,-112.5,107.5,177.5,190,200,200.0,487.5
8,Jacob Boneau,M,SBD,MR-O,83,Raw,1999,NC,81.60,160,162.5,170,170.0,-120,120,-125,120.0,182.5,190,195,195.0,485
9,Xavier Blackburn,M,SBD,MR-O,83,Raw,1994,NC,75.10,140,145,-150,145.0,75,85,-92.5,85.0,182.5,192.5,-205,192.5,422.5
DQ,Ethan Zola,M,SBD,MR-O,83,Raw,1997,NC,77.50,-135,-135,-135,,112.5,120,-122.5,120.0,127.5,132.5,137.5,137.5,
1,Jacob Forsythe,M,SBD,MR-O,93,Raw,1992,OH,92.40,217.5,227.5,232.5,232.5,135,145,147.5,147.5,272.5,285,295,295.0,675
2,Andrew Ianchici,M,SBD,MR-O,93,Raw,1995,NC,88.90,202.5,215,222.5,222.5,125,-132.5,132.5,132.5,237.5,250,-260,250.0,605
3,Shawn Ahuja,M,SBD,MR-O,93,Raw,1996,NC,88.70,170,180,190,190.0,125,130,135,135.0,250,262.5,275,275.0,600
4,Zach Wright,M,SBD,MR-O,93,Raw,1986,NC,92.00,210,220,227.5,227.5,132.5,137.5,142.5,142.5,220,227.5,230,230.0,600
5,Roberto Morelos,M,SBD,MR-O,93,Raw,1992,NC,91.40,190,202.5,-215,202.5,122.5,130,140,140.0,212.5,225,237.5,237.5,580
6,Michael Mussler,M,SBD,MR-O,93,Raw,1995,NC,91.90,-205,205,220,220.0,115,120,-130,120.0,215,232.5,240,240.0,580
7,Xavier Valentin,M,SBD,MR-O,93,Raw,1993,NC,91.90,152.5,162.5,172.5,172.5,130,135,-137.5,135.0,232.5,250,-262.5,250.0,557.5
8,Jacob Higgins,M,SBD,MR-O,93,Raw,1997,NC,88.90,195,212.5,-220,212.5,120,125,-132.5,125.0,195,207.5,217.5,217.5,555
9,Brayan Martinez,M,SBD,MR-O,93,Raw,1992,NC,91.30,175,187.5,200,200.0,127.5,132.5,-142.5,132.5,195,205,217.5,217.5,550
10,Alvaro Nava,M,SBD,MR-O,93,Raw,1997,FL,87.60,167.5,175,-182.5,175.0,115,122.5,127.5,127.5,212.5,225,-235,225.0,527.5
11,Charles Cervi,M,SBD,MR-O,93,Raw,1998,NC,92.70,172.5,177.5,-182.5,177.5,115,120,122.5,122.5,205,215,-225,215.0,515
12,Kurt Richardson,M,SBD,MR-O,93,Raw,1972,MO,90.80,165,185,192.5,192.5,115,120,-122.5,120.0,185,200,,200.0,512.5
13,Jim Nettles,M,SBD,MR-O,93,Raw,1974,NC,91.80,160,170,182.5,182.5,95,105,-115,105.0,150,165,185,185.0,472.5
14,Luke Hernandez,M,SBD,MR-O,93,Raw,1999,NC,84.70,142.5,-150,160,160.0,-92.5,-95,100,100.0,175,185,192.5,192.5,452.5
15,Vincent Ramos,M,SBD,MR-O,93,Raw,1983,NC,90.60,125,-135,135,135.0,-87.5,90,-95,90.0,125,150,,150.0,375
1,Tristan Stinson,M,SBD,MR-O,105,Raw,1993,NC,97.10,210,222.5,227.5,227.5,152.5,160,165,165.0,242.5,262.5,275,275.0,667.5
2,Dean Wright #1,M,SBD,MR-O,105,Raw,2000,NC,101.70,197.5,212.5,-220,212.5,125,132.5,-140,132.5,200,217.5,227.5,227.5,572.5
3,John Hill,M,SBD,MR-O,105,Raw,1966,NC,101.30,165,180,187.5,187.5,122.5,132.5,140,140.0,197.5,215,-225,215.0,542.5
4,Richard Lowery,M,SBD,MR-O,105,Raw,1998,SC,105.00,162.5,170,177.5,177.5,130,137.5,142.5,142.5,175,187.5,197.5,197.5,517.5
5,Michael Soos,M,SBD,MR-O,105,Raw,1965,NC,98.90,147.5,160,-175,160.0,85,-92.5,-92.5,85.0,160,180,195,195.0,440
1,Ikechukwu Onuoha,M,SBD,MR-O,120,Raw,1997,NC,114.00,202.5,215,225,225.0,180,192.5,200,200.0,265,290,305,305.0,730
2,Jevon Elliott,M,SBD,MR-O,120,Raw,1990,NC,116.20,235,250,-260,250.0,155,165,170,170.0,285,295,-312.5,295.0,715
3,Kevin West,M,SBD,MR-O,120,Raw,1992,NC,118.10,-237.5,-252.5,270,270.0,142.5,152.5,-160,152.5,277.5,-287.5,287.5,287.5,710
4,Nolasco Stevens Jr,M,SBD,MR-O,120,Raw,1998,SC,116.90,247.5,262.5,272.5,272.5,130,140,-145,140.0,260,277.5,-287.5,277.5,690
5,Spencer Ferguson #2,M,SBD,MR-O,120,Raw,1992,NC,108.10,182.5,190,197.5,197.5,110,115,120,120.0,230,242.5,255,255.0,572.5
6,Jeff Carver,M,SBD,MR-O,120,Raw,1969,NC,118.40,185,202.5,210,210.0,127.5,142.5,-150,142.5,185,200,-210,200.0,552.5
7,Michael Mackrell,M,SBD,MR-O,120,Raw,1994,NC,107.90,172.5,182.5,190,190.0,115,-125,,115.0,190,205,210,210.0,515
8,John Stone,M,SBD,MR-O,120,Raw,1968,NC,110.00,160,170,177.5,177.5,85,87.5,92.5,92.5,170,185,192.5,192.5,462.5
DQ,James Walding,M,SBD,MR-O,120,Raw,1983,NC,107.20,-185,-185,-190,,127.5,-142.5,-142.5,127.5,185,190,200,200.0,
1,Khourey Royal,M,SBD,MR-O,120+,Raw,1980,VA,183.50,217.5,227.5,-235,227.5,145,-155,160,160.0,247.5,262.5,272.5,272.5,660
1,Konner Stoneburg,M,SBD,MR-T1,83,Raw,2002,NC,77.60,80,92.5,102.5,102.5,52.5,60,-67.5,60.0,137.5,147.5,152.5,152.5,315
DQ,Ryan Givens,M,SBD,MR-T2,74,Raw,2001,NC,72.80,35,42.5,47.5,47.5,35,42.5,47.5,47.5,65,70,85,85.0,
1,Matthew Kolmanovsky,M,SBD,MR-T2,105,Raw,2001,NC,95.40,-132.5,135,147.5,147.5,60,62.5,75,75.0,135,142.5,160,160.0,382.5
1,Alex Ferrell,M,SBD,MR-T3,93,Raw,1999,NC,89.20,202.5,210,215,215.0,120,130,132.5,132.5,227.5,237.5,242.5,242.5,590
2,Luke Hernandez,M,SBD,MR-T3,93,Raw,1999,NC,84.70,142.5,-150,160,160.0,-92.5,-95,100,100.0,175,185,192.5,192.5,452.5
1,Dean Wright #1,M,SBD,MR-T3,105,Raw,2000,NC,101.70,197.5,212.5,-220,212.5,125,132.5,-140,132.5,200,217.5,227.5,227.5,572.5
