Name,WeightClassKg,Best3SquatKg,Best3BenchKg,Best3DeadliftKg,TotalKg,Event,Equipment,Sex,Division,AgeRange,Place
R. Coler,48,72.5,50,107.5,230,SBD,Single-ply,F,Open,,1
Ann Boyer,52,87.5,62.5,122.5,272.5,SBD,Single-ply,F,Open,,1
M. Vasquez,52,92.5,37.5,112.5,242.5,SBD,Single-ply,F,Open,,2
Chris Steinacker,56,110,85,112.5,307.5,SBD,Single-ply,F,Open,,1
H. Boyer,56,97.5,65,115,277.5,SBD,Single-ply,F,Open,,2
C. Wiss,60,125,62.5,155,342.5,SBD,Single-ply,F,Open,,1
C. Welden,60,77.5,47.5,112.5,237.5,SBD,Single-ply,F,Open,,2
S. Wendland,67.5,150,85,160,395,SBD,Single-ply,F,Open,,1
A. Ollenuking,67.5,142.5,90,160,392.5,SBD,Single-ply,F,Open,,2
T. Guess,67.5,107.5,55,117.5,280,SBD,Single-ply,F,Open,,3
M. Hughan,67.5,97.5,50,130,277.5,SBD,Single-ply,F,Open,,4
G. Krise,75,105,47.5,105,257.5,SBD,Single-ply,F,Open,,1
Angela Shelton,82.5,170,70,152.5,392.5,SBD,Single-ply,F,Open,,1
J. Holdiman,100,132.5,70,140,342.5,SBD,Single-ply,F,Open,,1
T. Nelson,60,137.5,77.5,175,390,SBD,Single-ply,M,Teenage,13-19,1
A. Hernandez,67.5,192.5,95,227.5,515,SBD,Single-ply,M,Teenage,13-19,1
S. Kaploe,75,180,140,225,545,SBD,Single-ply,M,Teenage,13-19,1
A. White,82.5,177.5,102.5,182.5,462.5,SBD,Single-ply,M,Teenage,13-19,1
A. Habben,90,205,142.5,205,552.5,SBD,Single-ply,M,Teenage,13-19,1
C. Brown,110,247.5,147.5,272.5,667.5,SBD,Single-ply,M,Teenage,13-19,1
W. Selesky,125+,272.5,147.5,277.5,697.5,SBD,Single-ply,M,Teenage,13-19,1
Mike Messersmith,52,137.5,90,192.5,420,SBD,Single-ply,M,Pure,,1
Don Moore,56,195,112.5,180,487.5,SBD,Single-ply,M,Pure,,1
D. Kennedy,56,132.5,92.5,157.5,382.5,SBD,Single-ply,M,Pure,,2
D. Allen,60,187.5,115,197.5,500,SBD,Single-ply,M,Pure,,1
J. Garcia,67.5,242.5,137.5,260,640,SBD,Single-ply,M,Pure,,1
Doug Abbey,67.5,210,125,240,575,SBD,Single-ply,M,Pure,,2
G. Rosch,67.5,190,107.5,227.5,525,SBD,Single-ply,M,Pure,,3
C. Rule,67.5,182.5,97.5,217.5,497.5,SBD,Single-ply,M,Pure,,4
B. Zeimet,75,220,142.5,227.5,590,SBD,Single-ply,M,Pure,,1
D. Malizzi,75,185,137.5,222.5,545,SBD,Single-ply,M,Pure,,2
D. Albright,75,185,105,192.5,482.5,SBD,Single-ply,M,Pure,,3
J. Becker,75,142.5,117.5,200,460,SBD,Single-ply,M,Pure,,4
R. King,75,160,112.5,182.5,455,SBD,Single-ply,M,Pure,,5
J. Chandler,82.5,275,182.5,250,707.5,SBD,Single-ply,M,Pure,,1
K. Wesselowski,82.5,207.5,135,272.5,615,SBD,Single-ply,M,Pure,,2
Justin Weisberg,82.5,230,137.5,245,612.5,SBD,Single-ply,M,Pure,,3
E. Rodriguez,82.5,205,135,227.5,567.5,SBD,Single-ply,M,Pure,,4
S. Cook,82.5,200,120,237.5,557.5,SBD,Single-ply,M,Pure,,5
S. Steinmeyer,82.5,190,117.5,195,502.5,SBD,Single-ply,M,Pure,,6
Matt Betts,90,300,180,282.5,762.5,SBD,Single-ply,M,Pure,,1
R. Ward,90,280,147.5,275,702.5,SBD,Single-ply,M,Pure,,2
David Grimm,90,242.5,165,255,662.5,SBD,Single-ply,M,Pure,,3
S. Parson,90,210,127.5,227.5,565,SBD,Single-ply,M,Pure,,4
K. Woolfork,90,215,142.5,205,562.5,SBD,Single-ply,M,Pure,,5
P. Krise,90,192.5,110,195,497.5,SBD,Single-ply,M,Pure,,6
T. Boscue,90,185,105,200,490,SBD,Single-ply,M,Pure,,7
B. Cookson,90,,,,,SBD,Single-ply,M,Pure,,DQ
M. Platt,100,272.5,182.5,272.5,727.5,SBD,Single-ply,M,Pure,,1
M. House,100,265,170,282.5,717.5,SBD,Single-ply,M,Pure,,2
S. Schmidt,100,207.5,160,247.5,615,SBD,Single-ply,M,Pure,,3
C. Hale,100,227.5,160,227.5,615,SBD,Single-ply,M,Pure,,4
Darrell Latch,100,220,137.5,255,612.5,SBD,Single-ply,M,Pure,,5
B. Patterson,100,205,150,222.5,577.5,SBD,Single-ply,M,Pure,,6
Keith Cohen,110,272.5,185,280,737.5,SBD,Single-ply,M,Pure,,1
Bill Truesdale,110,255,170,295,720,SBD,Single-ply,M,Pure,,2
S. Donivan,110,272.5,160,285,717.5,SBD,Single-ply,M,Pure,,3
M. McCullom,110,250,170,240,660,SBD,Single-ply,M,Pure,,4
P. Loyd,110,217.5,172.5,215,605,SBD,Single-ply,M,Pure,,5
T. Moore,125,262.5,192.5,272.5,727.5,SBD,Single-ply,M,Pure,,1
J. Strand,125,272.5,172.5,260,705,SBD,Single-ply,M,Pure,,2
M. Esposito,125,242.5,175,272.5,690,SBD,Single-ply,M,Pure,,3
M. Mitchell,125,272.5,172.5,237.5,682.5,SBD,Single-ply,M,Pure,,4
Carl Klehm,125,25,157.5,112.5,295,SBD,Single-ply,M,Pure,,5
David Oyler,125+,272.5,142.5,262.5,677.5,SBD,Single-ply,M,Pure,,1
B. Rogers,125+,265,170,240,675,SBD,Single-ply,M,Pure,,2
Bill Drybread,125+,182.5,125,220,527.5,SBD,Single-ply,M,Pure,,3
D. Longbine,60,150,95,170,415,SBD,Single-ply,M,Natural,,1
Doug Abbey,67.5,210,125,240,575,SBD,Single-ply,M,Natural,,1
D. Black,67.5,167.5,125,195,487.5,SBD,Single-ply,M,Natural,,2
R. Gambles,75,275,150,202.5,627.5,SBD,Single-ply,M,Natural,,1
B. Almany,75,200,152.5,227.5,580,SBD,Single-ply,M,Natural,,3
B. Frank,75,227.5,140,215,582.5,SBD,Single-ply,M,Natural,,2
S. McFarland,75,185,122.5,187.5,495,SBD,Single-ply,M,Natural,,4
J. Clark,75,100,100,100,300,SBD,Single-ply,M,Natural,,5
Ken Cannon,82.5,240,167.5,205,612.5,SBD,Single-ply,M,Natural,,1
S. McIlnay,82.5,230,137.5,245,612.5,SBD,Single-ply,M,Natural,,2
C. Kunce,82.5,220,145,237.5,602.5,SBD,Single-ply,M,Natural,,3
G. Bales,82.5,220,132.5,205,557.5,SBD,Single-ply,M,Natural,,4
M. Smith,82.5,192.5,137.5,205,535,SBD,Single-ply,M,Natural,,5
Bob Boyles,90,305,162.5,272.5,740,SBD,Single-ply,M,Natural,,1
R. Ward,90,280,147.5,275,702.5,SBD,Single-ply,M,Natural,,2
J. Weir,90,250,160,272.5,682.5,SBD,Single-ply,M,Natural,,3
B. Matel,90,237.5,152.5,275,665,SBD,Single-ply,M,Natural,,4
B. Sullivan,100,272.5,170,260,702.5,SBD,Single-ply,M,Natural,,1
A. Springman,100,260,147.5,240,647.5,SBD,Single-ply,M,Natural,,2
S. Schmidt,100,207.5,160,247.5,615,SBD,Single-ply,M,Natural,,3
M. Alexander,100,230,142.5,230,602.5,SBD,Single-ply,M,Natural,,4
Chris Wellbank,100,,,,,SBD,Single-ply,M,Natural,,DQ
A. Ortiz,100,,,,,SBD,Single-ply,M,Natural,,DQ
W. Sapp,110,302.5,197.5,307.5,807.5,SBD,Single-ply,M,Natural,,1
Jim Duree,110,282.5,132.5,282.5,697.5,SBD,Single-ply,M,Natural,,2
Bob Pierce,110,257.5,150,272.5,680,SBD,Single-ply,M,Natural,,3
J. Crenshaw,110,255,152.5,260,667.5,SBD,Single-ply,M,Natural,,4
G. Cook,110,230,157.5,255,642.5,SBD,Single-ply,M,Natural,,5
P. Loyd,110,217.5,172.5,215,605,SBD,Single-ply,M,Natural,,6
John Magee #1,125,292.5,172.5,272.5,737.5,SBD,Single-ply,M,Natural,,1
M. Esposito,125,242.5,175,272.5,690,SBD,Single-ply,M,Natural,,2
T. Highfill,125,240,155,260,655,SBD,Single-ply,M,Natural,,3
Carl Klehm,125,25,157.5,112.5,295,SBD,Single-ply,M,Natural,,4
M. Drybread,125+,245,195,272.5,712.5,SBD,Single-ply,M,Natural,,1
David Oyler,125+,272.5,142.5,262.5,677.5,SBD,Single-ply,M,Natural,,2
Dean Whitney,67.5,190,100,142.5,432.5,SBD,Single-ply,M,Masters 1,40-49,1
J. Clayton,67.5,130,72.5,132.5,335,SBD,Single-ply,M,Masters 1,40-49,2
Walter Murphy,82.5,200,107.5,217.5,525,SBD,Single-ply,M,Masters 1,40-49,1
C. Weils,82.5,170,97.5,222.5,490,SBD,Single-ply,M,Masters 1,40-49,2
Jim Krise,100,250,162.5,255,667.5,SBD,Single-ply,M,Masters 1,40-49,1
Dennis Mogusar,100,227.5,160,250,637.5,SBD,Single-ply,M,Masters 1,40-49,2
R. Maltby,100,235,160,235,630,SBD,Single-ply,M,Masters 1,40-49,3
Darrell Latch,100,220,137.5,255,612.5,SBD,Single-ply,M,Masters 1,40-49,4
J. Riggs,100,207.5,157.5,187.5,552.5,SBD,Single-ply,M,Masters 1,40-49,5
S. Harding,100,170,112.5,145,427.5,SBD,Single-ply,M,Masters 1,40-49,6
Jim Duree,110,282.5,132.5,282.5,697.5,SBD,Single-ply,M,Masters 1,40-49,1
R. Bruch,110,237.5,147.5,237.5,622.5,SBD,Single-ply,M,Masters 1,40-49,2
John Magee #1,125,292.5,172.5,272.5,737.5,SBD,Single-ply,M,Masters 1,40-49,1
K. Windholz,125,247.5,160,260,667.5,SBD,Single-ply,M,Masters 1,40-49,2
J. Anderson,125,222.5,145,222.5,590,SBD,Single-ply,M,Masters 1,40-49,3
J. Newman,125,182.5,140,230,552.5,SBD,Single-ply,M,Masters 1,40-49,4
Ann Boyer,52,87.5,62.5,122.5,272.5,SBD,Single-ply,F,Masters 2,50-999,1
James Ites,82.5,145,127.5,190,462.5,SBD,Single-ply,M,Masters 2,50-999,1
D. Boyer,82.5,155,107.5,187.5,450,SBD,Single-ply,M,Masters 2,50-999,2
Bill Shackelford,110,170,137.5,185,492.5,SBD,Single-ply,M,Masters 2,50-999,1
E. Stacey,125,205,150,207.5,562.5,SBD,Single-ply,M,Masters 2,50-999,1
Carl Klehm,125,25,157.5,112.5,295,SBD,Single-ply,M,Masters 2,50-999,2
Bill Drybread,125+,182.5,125,220,527.5,SBD,Single-ply,M,Masters 2,50-999,1
