﻿•▪                                          ▪                                                                 •
▪               ▪•                                                                                            ▪                                                                     ▪
1, • • ti • 0
                *Page 6                                                                                                                                                                                                                                                                                                                                                                                                                                                                                                                                                                                            AMERICAN DRUG FREE POWERLIFTING
                                                                                                                                                                                                                          mai, S                                      355                                   210         375   940                                                                                                                           OUTSTANDING LIFTER (MEN): DAVID AUDET OPEN 123                                                                                                                                                                                                                                                                                                       •
                                                                                                              MEET RESULTS                                                                                                42                                                                                                                                                                                                                                                                                                                                                                                                                         Blackburn, K        310                                                              205                                           340               855
                                                                                                                                                                                                                          avoie,E                                     350                                   230         400   980                                                                                                                           The 1995 NH State Powerlifting Championships was 132                                                                                                                                                                                                                                                                                                 4,
                                                                                                              FLEX GYM CLASSIC                                                                                            Martin, I                                   380                                   175         330   885                                                                                                                           held, for the second consecutive year, in the spaciousGarcia, M                                                                                                                                              330                                                              255                                           370               955         4
                                                                                                                                                                                                                          275 Levesque, D 310                                                               210         370   890                                                                                                                           confines of St &mains HaLL in Nashua, NH. With 73Collins, C                                                                                                                                                  285                                                              280                                           360               925
                                                                                                              APR 30, 1995-NORTI1GLENN, CO                                                                                UNL                                                                                                                                                                                                                               lifters and over 230 spe,ctators,OVeT the course of the hvoCrooks, M                                                                                                                                         225                                                              185                                           315               725
                                                                                                              ANDREA SORTVVELL                                                                                            Richardson, J                               400                                   275         425   1100                                                                                                                          day event, it was largest drug.tested state meet and the148
                WOMEN LIGHT 124                                                                                                                                                                                           WOMEN LIGHT                                                                                                                                                                                                                       second largest state meet ever. Saturday's liflingWinstML C                                                                                                                                                  390                                                              315                                           435               1140   •
I               "ry Benevidas, S            110                                                               95                                                                    165                           370     120 Botseas, D                              245                                   145         300   690                                                                                                                           featured some fine performances. In the women'sMurphy, 5                                                                                                                                                     390                                                              330                                           415               1135   •
                WOMEN HEAVY 140                                                                                                                                                                                           119 Steedm B                                270                                   110         300   680                                                                                                                           division, Damara Botseas pulled out a win,. in theLlewellyn,S                                                                                                                                                420                                                              240                                           475               1135
                Meshkow, S                  250                                                               115                                                                   240                           605     1 1 I Canha, L                              225                                   115         270   610                                                                                                                           lightweight class, on her last deadlift of 300 lbs. Sue PileMarkowski, R                                                                                                                                     395                                                              260                                           405               1060   •
                *TEENAGE LIGHT                                                                                                                                                                                            111 Dodge, M                                235                                   95          265   595                                                                                                                           reined supreme again in the middleweight class behind aSunna, N                                                                                                                                              350                                                              255                                           400               1005
                Ewan, S 162                 375                                                               275                                                                   365                           1015    WOMEN MIDDL                                 EWEIGHT                                                                                                                                                                               370 lb &edit. Sue was the outstanding women's Iifterl65
'I"liP.Y'r      M 173                       300                                                               185                                                                   325                           810     131 Pike, S                                 320                                   145         370   835                                                                                                                           for the third year in a row, a feat that has never beenLavelle, T                                                                                                                                            500                                                              385                                           480               1365
                4 Dcbelan,                  R. 149 240                                                        175                                                                   285                           700     135 Foley, L                                280                                   115         230   545                                                                                                                           done before. Marilyn Barba took the heavyweight elass,Ross, .1                                                                                                                                               460   3                                                          15                                            525               1300
                TEENAGE HEAVY                                                                                                                                                                                                                   WOMEN HEAVYWEIGHT                                                                                                                                                                                           breaking 300 lbs in the squat, and Dam Lehans-ScottCraugler, B                                                                                                                                               460                                                              370                                     425                     1255
                elp.Debalak, T 175 355                                                                        250                                                                   425                           1030    196 Barba, M                                300                                   155         345   800                                                                                                                           took the women's masters division, setting two maslersOleszczak, M                                                                                                                                           460                                                              265                                           500               1225
                JUNIOR                                                                                                                                                                                                    157 Parson, V                               240                                   135         245   620    records en route.                                                                                                                                                                                                                                                             Alley, B                                              3     85                                                         250                                     450                     1085
                Weiag, N 174                490                                                               350                                                                   495                           1335    WOMEN MASTERS                                                                                                                                                                                                                     The Special Olyrirnics division saw Sean Bums squealeBaughman, A                                                                                                                                             340                                                              290                                     450                     1080
                a., Smith, T 148            365                                                               275                                                                   460                           1100    137 Scott, Dare 305                                                               150         360   815                                                                                                                           by former state champion Josh Sanborn, by pulling aPayton, B                                                                                                                                                 250                                                              250                                     315                     815
                Alvarado, C 166 415                                                                           265                                                                   425                           1105    110 Moisis, M                               185                                   130         260   575                                                                                                                           285 lb deadlift. In the Submasters division,David DivalMiller, L                                                                                                                                             145                                                              453                                           145               743
                                            M 156 280                                                         185                                                                   330                           795     196 Barba, M                                300                                   155         345   800                                                                                                                           and Ray Houle battled throughout the day, with Lnival181
                SUBMASTER                                                                                                                                                                                                 OPEN SUBMASTER                                                                                                                                                                                                                    taking the title. DiVe's 400 lbsquat and deadlift„ and hisRoss, 1                                                                                                                                            540                                                              390                                     570                     1500
                Joutras, R                  370                                                               260                                                                   375                           10055   /20                   D                     400                                   250         400   1050                                                                                                                          2501b bench were both submaster and open 123 lb classOsvens, 9                                                                                                                                               555                                                              345                                     530                     1430
                4,ta, Lister, M             250                                                               200                                                                   400                           850     130 Houle, R                                390                                   240         425   1055                                                                                                                          state records. Andrew Christ° nosed out Carl AllgeYerDaus, K                                                                                                                                                 500                                                              360                                     540                     1400
                MASTERS LIGHT                                                                                                                                                                                             240 Dunham, D 530                                                                 370         380   1280                                                                                                                          for the middleweight Masters crown. Alan Rubin cameLeunneck, S                                                                                                                                               480                                                              335                                     475                     1290   •
                Balazs, L 145               335                                                               175                                                                   400                           910     215 Campbell, D 405                                                               315         460   1180                                                                                                                          out on top in the Grandmasters division, behind a 500 lbholuison, C                                                                                                                                          465                                                              320                                     475                     1260
                Murray,R 180                470                                                               270                                                                   520                           1260                          MASTER MIDDLEWEIGHT                                                                  deadlift.                                                                                                                                                                                                     198
                `401'" Burl, G              315                                                               200                                                                   440                           955     188 Christo, A                              465                                   305         510   1280                                                                                                                          In the Open weight classes, David Duval took the 17-3MelCirmey, R.                                                                                                                                           580                                                              440                                     550                     1570
                Vaughan, R 177 380                                                                            195                                                                   400                           975     192 Allgeyer, C 4                           80                                    320         480   1280                                                                                                                          lb division, arid fellow submasters competitor, RayKeleman, N                                                                                                                                                585                                                              415                                     565                     1565
                Coxsey, L 152               290                                                               255                                                                   410                           955     193 Karclitz, ft.                           440                                   340         450   1230                                                                                                                          Houle, took the 132 lb division, behind a state recordGertgler, H                                                                                                                                            555                                                              405                                     560                     1520        4
                MASTERS MIDDLE                                                                                                                                                                                            188 Smith, W                                440                                   275         405   1120                                                                                                                          bench of 240 lbs. John Panleledes repeated as 148 IbRegister, J                                                                                                                                              575                                                              440                                     500                     1515
                Kress, 1 203                355                                                               240                                                                   400                           995                           MASTER HEAVYWEIGHT                                                                                                                                                                                          champion behind a 475 lb squat and 305 lb bench. TheCook, J                                                                                                                                                  530                                                              350                                     575                     1455
                '48r Barkee, D 193          505                                                               375                                                                   500                           1380    242 Weeks, T                                640                                   365         600   1605                                                                                                                          largest class of the meet was the 165 lb. From start toGubics, 0                                                                                                                                             550                                                              325                                     540                     1415        44
                Borton, D 206               410                                                               260                                                                   450                           1120    216 Suisse, M 580                                                                 315         550   1445   ifnish it was mayhem, with virtually every place seerningGulm, W                                                                                                                                                                                                                                                                    550                                                              300                                     540                     1390
                Aldred,1 198                315                                                               225                                                                   315                           855     239 Rainey, M                               495                                   340         500   1335                                                                                                                          to shift with the next BEL Chris Mathieu came out on topPrusha, .1                                                                                                                                           565                                                              330                                     475                     1370
                Rabenold, K.195 175                                                                           270                                                                   155                           600     216 Reynolds, D 515                                                               330         135   980                                                                                                                           with the heaviest squat on the light day of 505 lbs and aBates, 0 Jr                                                                                                                                         525                                                              300                                     530                     1355
                MASTER HEAVY                                                                                                                                                                                              211 Noel, S                                 250                                   365         250   865                                                                                                                           solid 1280 lb total. Brian Panteledes came in a closesustin, B                                                                                                                                               500                                                              325                                     525                     1350
                Taylor, D 233               630                                                               350                                                                   550                           1530    239 Moisis, A                               225                                   275         400   900                                                                                                                           second with a 500 lb deadlift and 1255 lb total. Also otMosiey,T                                                                                                                                             475                                                              295                                     555                     1325
                Worley D 231                590                                                               280                                                                   565                           1435    GRANDMASTERS                                                                                                                                                                                                                      note was David Fabro's 540 lb state record dendlifi, theLoman,N                                                                                                                                              525                                                              300                                     500                     1325
                Pfister, 13 241             510                                                               375                                                                   530                           1415    205 Rubin, A                                405                                   345         500   1250                                                                                                                          heaviest of the day. In the 181 lb class, teenager Danielward, B                                                                                                                                             445   330                                                                                                455                     1230
                Halberstadt,C230 315                                                                          240                                                                   445                           1000    153 Dwyer, D                                315                                   145         385   845                                                                       Dore took top honors behind a 525 lb dead&                                                                                                 220
                MEN OPEN 132                                                                                                                                                                                              185 Gullagc, B                              315                                   145   385         845                                                                                                                           The heavy day saw David Haycock take the 198 lb tide.larrett, M                                                                                                                                              710   430                                                                                                645                     1785
                PYrek, G                    350                                                               230                                                                   370                           950     163 Petrone, J                              200                                   150   250         600                                                                                                                           Tom Weeks dominated the heavyweight Masters classTennan, M                                                                                                                                                   615   400                                                                                                685                     1700
                148                                                                                                                                                                                                       SPECIAL                                                                                                                                                                                                                           and 242 lb division for another year, totalling 1605 ibs.Challenger, V                                                                                                                                       550   380                                                                                                575                     1505
                Stange, S                   420                                                               250                                                                   430                           1100    Bums, S                                     220                                   170   285         675                                                                                                                           Paul Drone took the 2751b class, behinds 530 squat, andPunly, M                                                                                                                                              575                                                              355                                     535                     1465
                Smith, T                    365                                                               275                                                                   460                           1100    Sandbom, J                                  360                                   200         315   875                                                                                                                           in his first meet, Chris One took the super heavyweightCoulter, M                                                                                                                                            550   400                                                                                                500                     1450
                165                                                                                                                                                                                                       OPEN                                                                                                                                                                                                                              class, squatting and deadfifting 500 lbs. The outstandingFoster, D                                                                                                                                           515   330                                                                                                585                     1430   '    4
                M                           470                                                               250                                                                   500                           1220    123Duval, D                                 400                                   250   400         1050                                                                                                                          lifter of the weekend however was in the 220 lb class.Kenne, 0                                                                                                                                               550   270                                                                                                600                     1420
                AN Hew Len, D               370                                                               260                                                                   400                           1030    132 Houle R                                 390                                   240   425         1055                                                                                                                          Dave Audet set the crowd on its ear with an irnpressiveBuck, R                                                                                                                                               505   360                                                                                                525                     1390
                e" George, A                265                                                               235                                                                   345                           845     148                                                                                                                                                                                                                               740 lb squat, and followed that up with a very nanowWatkins, 3                                                                                                                                               145   475                                                                                                135                     755
*181                                                                                                                                                                                                                      Panteledes, J                               475                                   305   445         1225                                                                                                                          RE'S& at 800 lbs. Both his squat and his 1780 lb total weretirdson, B                                                                                                                                        145   425                                                                                                145                     715
                Garofalo, R                 585                                                               350                                                                   610                           1545    Geoffrey, D                                 395                                   240   390         1025   state records.                                                                                                                                                                                                                                                                Nichols, M                                            100   490                                                                                                100                     690
                Bonner, B                   625                                                               285                                                                   540                           1450    165                                                                                                                                                                                                                               In the team competition, Littleton High School oame242                                                                                                                                                                                                                                                                                               '    4
                Perez, F                    530                                                               310                                                                   590                           1430    Mathieu, C                                  505                                   265   510         1280                                                                                                                          out on top for the second straight year in the high schoolCunningham, P                                                                                                                                      685   365                                                                                                625                     1675
                Clark, R                    555                                                               335                                                                   535                           1425    Pantetedes, B                               975                                   280   5     00    1255                                                                                                                          division, The open division saw Galaxy Gym take topConun, S                                                                                                                                                  570   450                                                                                                600                     1620
                *Warig, N                   490                                                               350                                                                   495                           1335    Falvo, D                                    365                                   250   540         1155                                                                      honors, beating out Powerzone and Carl's Fitness.                                                                                                                                                          Arigel,T                                              615                                                              325                                     575                     1515
                „ Guerrero, R               540                                                               305                                                                   485                           1330    Molligi, A                                  400                                   250   490         1140                                                                                                                          In closing, I would like to thank the people that madePrater,1                                                                                                                                               530   430                                                                                                550                     1510        4
,A198                                                                                                                                                                                                                     Damcmt, S                                   440                                   265   435         1149                                                                                                                          this meet possible. For the second straight year, IheWolg A                                                                                                                                                  515   390                                                                                                550                     1490
                Barber, M                   700                                                               425                                                                   675                           1800    Ascani,J                                    425                                   265   450         1140                                                                                                                          spotting was incredible and made the meet especially275
                Pornponio, I                670                                                               385                                                                   645                           1700    Fanner, B                                   400                                   225   495         1120                                                                                                                          good. The spotters were Jeff Gibed, Dana Herne), MikeCoates, R                                                                                                                                               800   525                                                                                                700                     2025
                Nate, D                     505                                                               375                                                                   500                           1380    Brown, D                                    375                                   260   425         1060                                                                                                                          Bums, Mark White, and Dave Barham. The judges wereBuckholtz, W                                                                                                                                               675   410                                                                                                565                     1650
                Miona,                      460                                                               350                                                                   480                           1290    McCormack,!                                 330                                   215   400         945                                                                                                                           Walter Nadeau, Joe Wencus, Bud Johnson, and JohnWhite, S                                                                                                                                                     620   410                                                                                                6     10                1640
481, 220                                                                                                                                                                                                                  181                                                                                                                                                                                                                               Benson. Jackie Nadeau kept score, and Dan Labile clidBagara, A                                                                                                                                               620   395                                                                                                530                     1545
                On orato, 1                 550                                                               405                                                                   535                           149,0   Dore, D                                     385                                   245   525         1155                                                                                                                          his usual fantastic job behind the microphone as MC. Aichholz, S                                                                                                                                             580                                                              360                                     560                     1500        4
                lEiP' Mickey, G             540                                                               315                                                                   540                           1395    Barham, D                                   400                                   250   425         1075                                                                                                                                                                                                                                                                                 Weems, D                                              405   530                                                                                                500                     1435   '    4
                , Barton, D                 410                                                               260                                                                   450                           1120    Laverriere,                                 405                                   240   430         1075                                                                                                                                                                                                                 OHIO STATE CHAMPIONSHIP  BEST LIFTER- MASTERS: JAMES REGISTER
                Krell,                      370                                                               260                                                                   400                           1030    McQueen, R                                  370                                   285   405         1060
                *242 Pfister, B             510                                                               375                                                                   530                           1415    Gamelin, B                                  305                                   225   350         880                                                                                                                                                                                                                  APRIL 30,1995-BEDFORD HTS, OH BEsT LIFTER - LIGHT: JASON ROSS                                                               BEST LIFTER. HEAVY: RICK COATIS
                275                                                                                                                                                                                                       198 Haycock, D 450                                                                290   505         1245                                                                                                                          ED & FRANK KING                                                                                                                                                                                                    The 1995 ADFPA OHIO STATE CHAMPIONSHIPS
                • Kaminski,                 550                                                               370                                                                   605                           1525    220                                                                                                        WOMEN                                                                                                                                                                                                                                                                                                                                     was again a huge success. With 90 competitors, many                                                                               '    4
                Mturay, A                   300                                                               220                                                                   375                           895     Andel, D                                    740                                   420   620         1780   112 Franlariann,L265                                                                                                   170                                                                        315         750                                                             na                                dd                                                                                   some American Records were broken.
                Nv" UNL Burcham, B 640                                                                        500                                                                   600                           1740    Bryson, 13                                  530                                   360   530         1420   207 Comcy, L                                                       435                                                 180                                                                        395         1010                                                            The                               fo                                                                                   llowing American Records were broken:
                                                                                                              *Thanks to the Following: FLEX GYM NORTHGLENN, Gaeta, J                                                                                                 450                                   330   570         1350   122 Ruffener, M 275                                                                                                    175                                                                        280         730                                                                                                                         Teenager Pat Wilson broke the Bench Press Record with
                                                                                                              , manager Bill Baker, and his staff Referees: A Galant, M Molligi,J                                                                                     500                                   315   500         1315   122 Levi,                                                          265                                                 160                                                                        235         660                                                                                                                         a 435 lb press. Master Lifter C. 3. Batten broke the
                                                                                                              V Sigala, B Kinerson, L Jones, and A Sortwell. Platform Agnew, I                                                                                        470                                   320   485         1275   103 Guildone, P 160                                                                                                    90                                                                         205         455                                                                                                                         bench Record with a 505 lb press. Dr. Larry Miller
                                            Manager. M Ratzlaff. Spotter/Loaders: S Krauss, .1                                                                                                                            FCarpinski, S                               455                                   285   485         1225   TEENS                                                                                                                                                                                                                                                                                                                                     broke yet another Bench Record with a 453 lb press in                                                                             '    4
                                            `rtirr Miller, D York, D & M Cooper. Expeditors/Table Help: 242                                                                                                                                                                                                                          191 Wilson, P                                                      385                                                 435                                                                        525         1345                                                                                                                        the 165 lb class. The Kings Gym Powelifting Team                                                                                       4
                                            deg,T Kemper, L Gant, L Vaughan, A Bader, &                                                                                                                                   Weeks, T                                    640                                   365   600         1605   155Lamneck, S 400                                                                                                      275                                                                        360         1035                                                                                                                        once again won the Team Trophy making it five years in
                                            Samuelson. Announcing: L Hurnmler. Results                                                                                                                                    Pace 3                                      600                                   400   600         1600   241 Isbell, I                                                      540                                                 315                                                                        490         1345                                                            a row!!!
                                            et*submitted by A Sortwell, Colorado AURA State                                                                                                                               Drew, J                                     615                                   360   545         1520   173Kippert, B                                                      360                                                 235                                                                        440         1035                                                                                                                        Outstanding Lifters were: James Register won the
                Chair, and Meet Director.                                                                                                                                                                                 Bums, B                                     570                                   300   530         1400   259 Costello, S 380                                                                                                    350                                                                        5     00    1230                                                                                                                        Outstanding Lifter award in the 40.49 Masters with a
                                            Mike Barber was the All-Around Champion                                                                                                                                       275 Drone, P                                530                                   340   500         1370   257 Doughty,                                                       475                                                 240                                                                        400         2115                                                                                                                        1515 total, Jason Ross won the Outstanding Lifter
                                            *Flex Gym Lakewood - Pion Place Teem                                                                                                                                          UNL Otte, C                                 500                                   280   500         1280   242 Wells, S                                                       300                                                 170                                                                        300         770                                                                                                                         award in the Lightweight Division with a 1500 total.
                                                                                                                                                                                                                                                HIGH SCHOOL TEAM:                                                                    MASTERS 40-49                                                                                                                                                                                                                                                                                                                             Pick Coates won the Outstanding Lifter award in the
4st,                                        NEW HAMPSHIRE STATE                                                                                                                                                                                                       LTITLETON - 26                                                 189 Register.]                                                     575                                                 440                                                                        500         ISIS                                                                                                                        275 lb Heavyweight Division with a 2025 total.
                                                                                                                                                                                                                                                                      NASHUA-                                     16                 198Gengler, IT                                                     555                                                 405                                                                        560         1520                                                                                                                        The following competitors were tested and were found
4,                                          APR 8-9, 95-NASHUA, NH                                                                                                                                                                                                    PORTSMOUTH- 7                                                  256 Bucldiolz,W 675                                                                                                    410                                                                        565         1650                                                                                                                        to be drug free: Mike Jana; Diane Malvin; Jerry
                                            ROBERT ROGERS                                                                                                                                                                                                             SPAULDING- 7                                                   175 Lamneck, S 480                                                                                                     335                                                                        475         1290                                                                                                                        Willoughby; Randy McKinney; Linda Corney; Lynn
                4.1-1101iSCHOOL 132                                                                                                                                                                                                                                   KINGSWOOD- 7                                                   164 Oleszczak, M460                                                                                                    275                                                                        500         1225                                                                                                                        Frankrnann; Rick Coates; Pat Wilson; Cl Batten; and
                Roy,                        275                                                               260                                                                   350                           1385    OPEN TEAM:                                                                                                 220 Sines, C                                                       425                                                 280                                                                        470         1/75                                                            Lary Miller.
                "cr 148 SpocIstra, E 240                                                                      180                                                                   360                           780                                                 GALAXY-                                     31                 MASTERS 50-59                                                                                                                                                                                                                                                                                                                             My brother Frank and I would Eke to thank all the                                                                                 4>
*               181 Chilafoe,               165                                                               110                                                                   280                           555                                                 POWERZONE- 20                                                  195 Sustin, B                                                      500                                                 325                                                                        525         1350                                                                                                                        judges, spotters, loaders, scorer personnel, and
                19S Hobbs, T                210                                                               155                                                                   330                           695                                                 CARL'S-                                     13                 262Batten, C.7                                                     500                                                 505                                                                        500         1505                                                                                              concession stand.
                220                                                                                                                                                                                                                                                   OUTSTANDINGLIFTER(148): JASON ROY                              181 Woods, G                                                       405                                                 255                                                                              405   11365                                                                                                                       Special thanks to Beany King, Tony King, and Mom
                Polo, N                     375                                                               210                                                                   450                           1035                                                OUTSTANDING LITTER(WOMEN): SUE PIKE                                                                                                                                                                                                                                                                                                                                                                      King. Without the help and support of these people, this
                                                                                                                                                                                                                                                                                                                                                                                                                                                                                                                                                                                                                                                                                                                                                                                                                 •
                                                                                                                                                                                    .04,4-4-4.444404,4.4,400 44                                                                                                         M                                                                                                                                                                                                                                                                                                                                                                                                                                                               4..4040.404,41,
