Place,Name,Sex,Age,Equipment,Division,BodyweightKg,WeightClassKg,Squat1Kg,Squat2Kg,Squat3Kg,Squat4Kg,Best3SquatKg,Bench1Kg,Bench2Kg,Bench3Kg,Bench4Kg,Best3BenchKg,Deadlift1Kg,Deadlift2Kg,Deadlift3Kg,Deadlift4Kg,Best3DeadliftKg,TotalKg,Event,BirthDate,Country
1,Jennifer Childerhouse,F,20,Wraps,F_JCR_AWPC,58.3,60,110,120,-127.5,,120,40,45,47.5,,47.5,110,-120,-120,,110,277.5,SBD,,UK
2,Grace Wellstood,F,22,Wraps,F_JCR_AWPC,58,60,75,82.5,87.5,,87.5,37.5,42.5,45,,45,110,115,122.5,,122.5,255,SBD,,UK
1,Carolyn Coates,F,23,Wraps,F_JCR_AWPC,74.6,75,120,-130,130,,130,60,-65,-67.5,,60,120,140,150,,150,340,SBD,,UK
1,Kelly Morgan #2,F,40,Wraps,F_MCR_1_WPC,73.85,75,110,120,130,,130,62.5,67.5,-70,,67.5,122.5,130,137.5,,137.5,335,SBD,,UK
1,Sherie Reed,F,40,Wraps,F_MCR_1_WPC,82.65,90,100,,,,100,70,75,80,,80,140,152.5,161,,161,341,SBD,,UK
1,Viv Dickinson,F,40,Wraps,F_MCR_1_AWPC,89.95,90,-130,130,-137.5,,130,70,-75,-75,,70,110,117.5,125,,125,325,SBD,,UK
DQ,Carol Hughes,F,44,Wraps,F_MCR_1_AWPC,119.8,90+,-120,120,130,,130,-70,-77.5,-77.5,,,,,,,,,SBD,,UK
1,Claire Fraser-Brenchley,F,49,Wraps,F_MCR_2_WPC,65.8,67.5,-85,85,-90,,85,37.5,40,-42.5,,40,92.5,97.5,100,,100,225,SBD,,UK
1,Nicky Edgar,F,46,Wraps,F_MCR_2_AWPC,67.45,67.5,95,102.5,-107.5,,102.5,50,52.5,55,,55,125,130,-135,,130,287.5,SBD,,UK
1,Daniella Scozzi,F,52,Wraps,F_MCR_3_WPC,63.25,67.5,110,122.5,132.5,,132.5,62.5,67.5,70,,70,130,140,145,,145,347.5,SBD,,UK
1,Mo Proctor,F,54,Wraps,F_MCR_3_WPC,93.35,90+,115,120,125,,125,72.5,75,-77.5,,75,130,137.5,-150,,137.5,337.5,SBD,,UK
NS,Charlie Beardsley,F,50,Wraps,F_MCR_3_AWPC,,67.5,,,,,,,,,,,,,,,,,SBD,,UK
DQ,Julie Churm,F,54,Wraps,F_MCR_3_AWPC,123.05,90+,-110,-120,-120,,,55,-65,,,55,,,,,,,SBD,,UK
1,Pauline Dolan,F,63,Wraps,F_MCR_5_AWPC,87.75,90,105,-110,110,,110,57.5,62.5,-65,,62.5,130,140,145,,145,317.5,SBD,,UK
NS,Geraldine Goligher,F,49,Wraps,F_OCR_WPC,,67.5,,,,,,,,,,,,,,,,,SBD,,UK
NS,Nicola Corbett,F,29,Wraps,F_OCR_WPC,,60,,,,,,,,,,,,,,,,,SBD,,UK
NS,Sharon Eggleton,F,41,Wraps,F_OCR_WPC,,67.5,,,,,,,,,,,,,,,,,SBD,,UK
NS,Theresa Cesnik,F,31,Wraps,F_OCR_WPC,,67.5,,,,,,,,,,,,,,,,,SBD,,UK
1,Natalie O'Shea,F,34,Wraps,F_OCR_WPC,74.85,75,170,185,192.5,,192.5,100,107.5,110,,110,185,197.5,,,197.5,500,SBD,,UK
2,Kara Shaw,F,33,Wraps,F_OCR_WPC,72.45,75,125,135,142.5,,142.5,77.5,82.5,87.5,,87.5,150,160,170,,170,400,SBD,,UK
1,Lana Thomas Hey,F,37,Wraps,F_OCR_WPC,86.8,90,150,160,165,,165,92.5,100,-102.5,,100,165,175,185,,185,450,SBD,,UK
1,Sarah Wells #3,F,38,Wraps,F_OCR_WPC,105.35,90+,110,120,125,,125,65,70,75,,75,-155,160,172.5,,172.5,372.5,SBD,,UK
NS,Becca Lundberg,F,38,Wraps,F_OCR_AWPC,,82.5,,,,,,,,,,,,,,,,,SBD,,UK
NS,Hermione Henry,F,30,Wraps,F_OCR_AWPC,,75,,,,,,,,,,,,,,,,,SBD,,UK
NS,Kasia Seifert,F,33,Wraps,F_OCR_AWPC,,82.5,,,,,,,,,,,,,,,,,SBD,,UK
NS,Lorna Paton,F,38,Wraps,F_OCR_AWPC,,82.5,,,,,,,,,,,,,,,,,SBD,,UK
1,Rachel Measures,F,38,Wraps,F_OCR_AWPC,51.65,52,55,60,70,,70,40,45,47.5,,47.5,125,133,-135,,133,250.5,SBD,,UK
1,Amy Standerwick,F,26,Wraps,F_OCR_AWPC,59.7,60,110,120,130,,130,60,-65,-65,,60,130,140,150,,150,340,SBD,,UK
2,Emily Dodd #1,F,27,Wraps,F_OCR_AWPC,59.95,60,110,115,120,,120,77.5,82.5,-87.5,,82.5,130,135,-140,,135,337.5,SBD,,UK
3,Leanne Sampson,F,33,Wraps,F_OCR_AWPC,59.95,60,105,-115,-115,,105,50,-55,-55,,50,150,160,-162.5,,160,315,SBD,,UK
4,Claire Cartlidge,F,37,Wraps,F_OCR_AWPC,59.95,60,100,107.5,112.5,,112.5,55,57.5,-60,,57.5,120,140,-150,,140,310,SBD,,UK
5,Sophie Keeble,F,24,Wraps,F_OCR_AWPC,59.2,60,100,105,110,,110,50,55,-60,,55,115,125,135,,135,300,SBD,,UK
6,Aimee Paterson,F,28,Wraps,F_OCR_AWPC,59,60,100,-110,-110,,100,52.5,57.5,-60,,57.5,125,135,-142.5,,135,292.5,SBD,,UK
1,Amanda Gisby,F,39,Wraps,F_OCR_AWPC,62.7,67.5,140,150,-160,,150,55,60,65,,65,150,160,-170,,160,375,SBD,,UK
2,Aleksandra Urbaniak,F,34,Wraps,F_OCR_AWPC,67.4,67.5,120,130,140,,140,70,75,77.5,,77.5,120,130,-140,,130,347.5,SBD,,UK
3,Zowie Trevena,F,38,Wraps,F_OCR_AWPC,64.7,67.5,120,-127.5,127.5,,127.5,55,60,-65,,60,125,130,135,,135,322.5,SBD,,UK
1,Kristina Dunkhase,F,29,Wraps,F_OCR_AWPC,74.25,75,130,137.5,140,,140,87.5,92.5,95,,95,160,167.5,172.5,,172.5,407.5,SBD,,Scotland
2,Paula Zaradkiewicz,F,33,Wraps,F_OCR_AWPC,73.3,75,145,155,-165,,155,60,65,-67.5,,65,145,155,165,,165,385,SBD,,
3,Lynzi Shepherd,F,33,Wraps,F_OCR_AWPC,74.1,75,145,155,160,,160,67.5,72.5,-75,,72.5,150,-160,-160,,150,382.5,SBD,,UK
1,Holly Bolus,F,31,Wraps,F_OCR_AWPC,77.45,82.5,132.5,137.5,-142.5,,137.5,57.5,62.5,-65,,62.5,135,142.5,145,,145,345,SBD,,UK
1,Katie Edwards #3,F,33,Wraps,F_OCR_AWPC,89.6,90,157.5,165,170,,170,85,87.5,90,,90,172.5,180,185,-191,185,445,SBD,,UK
2,Viv Dickinson,F,40,Wraps,F_OCR_AWPC,89.95,90,-130,130,-137.5,,130,70,-75,-75,,70,110,117.5,125,,125,325,SBD,,UK
3,Ashleigh Smedley,F,27,Wraps,F_OCR_AWPC,86.5,90,110,120,130,,130,50,55,-57.5,,55,110,120,-130,,120,305,SBD,,UK
4,Sam Rynne,F,37,Wraps,F_OCR_AWPC,83.85,90,110,115,-120,,115,52.5,-57.5,-57.5,,52.5,110,115,-125,,115,282.5,SBD,,UK
1,Dawn Birchall,F,36,Wraps,F_OCR_AWPC,118.05,90+,130,-140,145,,145,70,77.5,-85,,77.5,140,150,160,,160,382.5,SBD,,UK
1,Lissy Trevena,F,16,Wraps,F_TCR_2_AWPC,54.6,56,85,90,95,,95,35,40,-42.5,,40,105,110,115,,115,250,SBD,,UK
1,Freya Johnson,F,17,Wraps,F_TCR_2_AWPC,66.15,67.5,-150,150,162.5,167.5,162.5,70,73,75,-77.5,75,150,160,-170,,160,397.5,SBD,,UK
1,Allison Hough,F,55,Single-ply,F_MES_4_AWPC,66.85,67.5,115,125,130,,130,90,95,100,,100,70,,,,70,300,SBD,,UK
1,Gemma Wright,F,28,Single-ply,F_OES_WPC,82.5,82.5,-240,-240,240,,240,115.5,-120,,,115.5,160,172.5,-177.5,,172.5,528,SBD,,UK
1,Gemma Wright,F,28,Single-ply,F_OES_AWPC,82.5,82.5,-240,-240,240,,240,115.5,-120,,,115.5,160,172.5,-177.5,,172.5,528,SBD,,UK
NS,Melanie Clifford,F,42,Multi-ply,F_MEM_1_AWPC,,90+,,,,,,,,,,,,,,,,,SBD,,UK
1,Tehya-Leonie Kirby,F,23,Raw,F_JR_AWPC,57.9,60,112.5,-120,-120,,112.5,-55,-55,55,,55,107.5,-115,-115,,107.5,275,SBD,,UK
2,Layla Simmons,F,21,Raw,F_JR_AWPC,58.55,60,70,-75,-80,,70,40,45,47.5,,47.5,85,95,100,,100,217.5,SBD,,UK
1,Natalie March,F,22,Raw,F_JR_AWPC,64.4,67.5,67.5,75,87.5,,87.5,42.5,47.5,-52.5,,47.5,120,130,137.5,,137.5,272.5,SBD,,UK
1,Edna Ogbee,F,23,Raw,F_JR_AWPC,82.1,82.5,120,130,140,,140,85,87.5,-92.5,,87.5,210,220,-227.5,,220,447.5,SBD,,UK
1,Kirsty Holmes,F,43,Raw,F_MR_1_AWPC,58.9,60,77.5,82.5,-87.5,,82.5,45,47.5,50,,50,130,140,-145,,140,272.5,SBD,,UK
2,Vikki Thomas,F,41,Raw,F_MR_1_AWPC,59.2,60,-102.5,102.5,105,,105,42.5,-47.5,-47.5,,42.5,117.5,-125,125,,125,272.5,SBD,,UK
1,Imogen House,F,44,Raw,F_MR_1_AWPC,62.75,67.5,80,-82.5,-82.5,,80,37.5,-40,-40,,37.5,90,100,105,,105,222.5,SBD,,UK
1,Johanna Mayerhofer,F,48,Raw,F_MR_2_AWPC,47.7,48,-70,70,-75.5,,70,35,37.5,-40,,37.5,107.5,112.5,-117.5,,112.5,220,SBD,,UK
1,Jackie Langridge,F,46,Raw,F_MR_2_AWPC,70.9,75,-115,115,120,,120,52.5,57.5,-60,,57.5,130,140.5,145,-150,145,322.5,SBD,,UK
1,Julie Green #1,F,53,Raw,F_MR_3_AWPC,105.3,90+,115,-130,-130,,115,60,65,70,,70,120,130,-145,,130,315,SBD,,UK
1,Bev Johnson,F,56,Raw,F_MR_4_AWPC,67.35,67.5,75,80,85,,85,47.5,50,-55,,50,95,102.5,110,,110,245,SBD,,UK
1,Hetty Salmon,F,55,Raw,F_MR_4_AWPC,81.95,82.5,85,90,95,,95,50,55,60,,60,100,110,-120,,110,265,SBD,,UK
1,Hiromi Stone,F,62,Raw,F_MR_5_AWPC,55.9,56,72.5,-75,-75,,72.5,30,32.5,35,,35,-95,95,-105,,95,202.5,SBD,,UK
1,Helen Holden,F,61,Raw,F_MR_5_AWPC,61.05,67.5,60,65,-70,,65,35,37.5,-40,,37.5,80,85,90,,90,192.5,SBD,,UK
1,Diane Leach,F,63,Raw,F_MR_5_AWPC,95.4,90+,92.5,105,112.5,,112.5,47.5,-50,-50,,47.5,127.5,135,-140,,135,295,SBD,,UK
1,Sandra Coombes,F,72,Raw,F_MR_7_AWPC,73.9,75,65,70,75,,75,42.5,47.5,-52.5,,47.5,85,92.5,100,102.5,100,222.5,SBD,,UK
1,Kerry Jones,F,34,Raw,F_OR_WPC,88.8,90,160,172.5,,,172.5,85,95,-100,,95,185,-195,-195,,185,452.5,SBD,,UK
1,Laura Kirk,F,31,Raw,F_OR_AWPC,51.8,52,92.5,97.5,102.5,,102.5,60,65,-67.5,,65,125,130,-135,,130,297.5,SBD,,UK
1,Kirsty Holmes,F,43,Raw,F_OR_AWPC,58.9,60,77.5,82.5,-87.5,,82.5,45,47.5,50,,50,130,140,-145,,140,272.5,SBD,,UK
1,Michaela Owen-Clark,F,35,Raw,F_OR_AWPC,66.95,67.5,135,145,150,,150,77.5,82.5,-85,,82.5,-155,165,-170,,165,397.5,SBD,,UK
2,Faye Ronan,F,34,Raw,F_OR_AWPC,67.4,67.5,107.5,115,122.5,,122.5,75,-80,-80,,75,90,105,-120,,105,302.5,SBD,,UK
3,Samantha Priestley,F,34,Raw,F_OR_AWPC,64.6,67.5,100,105,-112.5,,105,50,-52.5,52.5,,52.5,110,120,125,,125,282.5,SBD,,UK
4,Cheska Webb,F,33,Raw,F_OR_AWPC,61.55,67.5,75,80,85,,85,55,57.5,-60,,57.5,-122.5,-122.5,122.5,,122.5,265,SBD,,UK
5,Aline Aronsky,F,25,Raw,F_OR_AWPC,64.8,67.5,80,90,-95,,90,-40,40,45,,45,85,95,105,,105,240,SBD,,UK
1,Carey Mason,F,33,Raw,F_OR_AWPC,73.9,75,115,130,137.5,,137.5,70,75,-77.5,,75,190,200,205,-207.5,205,417.5,SBD,,UK
2,Jen Harden,F,36,Raw,F_OR_AWPC,74.9,75,97.5,102.5,-107.5,,102.5,55,-60,-60,,55,122.5,130,132.5,,132.5,290,SBD,,UK
3,Kirstie Hughes,F,35,Raw,F_OR_AWPC,73.5,75,55,60,-65,,60,35,40,-42.5,,40,75,85,-92.5,,85,185,SBD,,UK
1,Katie Rourke,F,26,Raw,F_OR_AWPC,80.2,82.5,150,160,-162.5,,160,-82.5,82.5,85,,85,160,,,,160,405,SBD,,UK
2,Francesca Dennis,F,25,Raw,F_OR_AWPC,82.5,82.5,-115,120,-125,,120,-85,-85,85,,85,160,-170,-170,,160,365,SBD,,UK
3,Bringsty Edwards,F,31,Raw,F_OR_AWPC,82.4,82.5,120,135,-145,,135,70,77.5,-85,,77.5,150,-162.5,-162.5,,150,362.5,SBD,,UK
4,Holly Hewlett,F,29,Raw,F_OR_AWPC,79.6,82.5,95,-105,110,,110,47.5,52.5,55,,55,125,135,-140,,135,300,SBD,,UK
5,Ameesha Bhudia,F,35,Raw,F_OR_AWPC,80.9,82.5,90,100,-110,,100,45,47.5,50,52.5,50,110,120,130,-135,130,280,SBD,,UK
1,Lisa Murgatroyd,F,32,Raw,F_OR_AWPC,89.6,90,110,117.5,125,,125,52.5,57.5,-60,,57.5,110,120,-127.5,,120,302.5,SBD,,UK
1,Alex Young #2,F,30,Raw,F_OR_AWPC,126.1,90+,140,152.5,162.5,,162.5,85,90,95,,95,142.5,152.5,-162.5,,152.5,410,SBD,,UK
1,Isabelle Simper,F,15,Raw,F_TR_1_AWPC,53.1,56,95,100,-102.5,,100,55,57.5,-60,,57.5,130,140,142.5,,142.5,300,SBD,,UK
1,Allana Hillman,F,16,Raw,F_TR_2_AWPC,90.1,90+,127.5,-137.5,145,,145,50,-60,60,,60,127.5,137.5,145,,145,350,SBD,,UK
NS,Abbie Blick,F,18,Raw,F_TR_3_AWPC,,75,,,,,,,,,,,,,,,,,SBD,,UK
1,Emily Brewster #2,F,18,Raw,F_TR_3_AWPC,51.85,52,60,65,70,,70,30,32.5,35,,35,90,100,,,100,205,SBD,,UK
1,George Hurt,M,22,Single-ply,M_JES_WPC,119.3,125,305,330,-350,,330,220,-230,230,,230,290,-320,-320,,290,850,SBD,,UK
1,Adrian Phillips,M,57,Single-ply,M_MES_4_AWPC,99.5,100,-210,210,-220,,210,132.5,137.5,-142.5,,137.5,220,230,-240,,230,577.5,SBD,,UK
1,Mark Moss,M,58,Single-ply,M_MES_4_AWPC,102.45,110,150,160,,,160,120,-130,130,,130,160,170,,,170,460,SBD,,UK
DQ,Daniel Whittall,M,27,Single-ply,M_OES_AWPC,84.95,90,-275,-275,-275,,,,,,,,,,,,,,SBD,,UK
1,Edward Holt,M,27,Single-ply,M_OES_AWPC,120.15,125,-310,335,-350,,335,230,235,-240,,235,250,275,282.5,,282.5,852.5,SBD,,UK
1,Tony Chilcott,M,54,Single-ply,M_MES_3_WPC,80.9,82.5,250,270,-281,,270,150,160,170,,170,200,210,220,,220,660,SBD,,UK
1,Neil Stewart,M,45,Multi-ply,M_OEM_WPC,98.9,100,175,200,,,200,195,-205,-215,,195,-200,200,222.5,,222.5,617.5,SBD,,UK
1,James Taylor #1,M,29,Multi-ply,M_OEM_WPC,109.05,110,340,380,-400,,380,-270,270,302.5,,302.5,290,307.5,-317.5,,307.5,990,SBD,,UK
DQ,Aaron Hosking,M,37,Multi-ply,M_OEM_WPC,124.45,125,370,,,,370,-282.5,-282.5,-282.5,,,,,,,,,SBD,,UK
1,Tom Gee #1,M,38,Multi-ply,M_OEM_AWPC,89.6,90,280,295,-302.5,,295,185,195,200,,200,242.5,257.5,,,257.5,752.5,SBD,,UK
1,James Godber,M,35,Single-ply,M_OES_WPC,134.1,140,,,,,,70,-265,-287.5,,70,,,,,,70,B,,UK
1,Tegan Eason,F,14,Raw,F_TR_1_AWPC,44.75,48,70,80,82,-85,82,30,35,-40,,35,75,80,85,,85,202,SBD,,UK
1,Owen Crisp,M,22,Raw,M_JR_AWPC,74.6,75,112.5,125,130,,130,80,-87.5,-87.5,,80,165,-175,-175,,165,375,SBD,,UK
1,David Fitzgerald #1,M,20,Raw,M_JR_AWPC,89.85,90,195,205,212.5,,212.5,135,142.5,147.5,,147.5,-220,222.5,230,,230,590,SBD,,Ireland
2,Tyler White #1,M,22,Raw,M_JR_AWPC,89.4,90,-200,200,-210,,200,130,-140,-140,,130,240,-260,-260,,240,570,SBD,,UK
1,John Charles Samuel,M,23,Raw,M_JR_AWPC,181,140+,-160,160,180,,180,-100,-115,115,,115,200,215,-230,,215,510,SBD,,UK
NS,Adam Gasson,M,40,Raw,M_MR_1_AWPC,,110,,,,,,,,,,,,,,,,,SBD,,UK
1,Mark Skinner #1,M,42,Raw,M_MR_1_AWPC,66.4,67.5,100,125,135,,135,80,90,100,,100,150,160,170,,170,405,SBD,,UK
1,Sibghat Ullah,M,42,Raw,M_MR_1_AWPC,75,75,160,167.5,172.5,,172.5,92.5,100,-102.5,,100,195,210,223,,223,495.5,SBD,,UK
1,Chun-Kit Kan,M,43,Raw,M_MR_1_AWPC,80.5,82.5,165,-175,175,,175,105,-112.5,-112.5,,105,210,220,-225,,220,500,SBD,,UK
1,Neil Keddy,M,43,Raw,M_MR_1_AWPC,97.4,100,160,170,175,,175,120,130,135,,135,180,200,210,,210,520,SBD,,UK
1,Nadeem Mahmood,M,43,Raw,M_MR_1_AWPC,108.6,110,185,-197.5,197.5,,197.5,110,117.5,-120,,117.5,200,215,225,,225,540,SBD,,UK
NS,Matt Mawson,M,47,Raw,M_MR_2_AWPC,,100,,,,,,,,,,,,,,,,,SBD,,UK
NS,Robert Thornhill,M,49,Raw,M_MR_2_AWPC,,140,,,,,,,,,,,,,,,,,SBD,,UK
1,Mark Taylor #2,M,48,Raw,M_MR_2_AWPC,63.25,67.5,145,155,-162.5,,155,95,100,105,,105,160,170,182.5,,182.5,442.5,SBD,,UK
1,Dave Langridge,M,46,Raw,M_MR_2_AWPC,87.1,90,150,160,165,,165,-115,115,-120,,115,190,200,207.5,,207.5,487.5,SBD,,UK
1,Stephen Wilcox,M,47,Raw,M_MR_2_AWPC,99.3,100,155,165,172.5,,172.5,120,130,135,,135,200,212.5,225,,225,532.5,SBD,,UK
1,Nick Simpson #1,M,50,Raw,M_MR_3_AWPC,98.15,100,185,215,225,,225,145,155,165,,165,200,225,-230,,225,615,SBD,,UK
1,Steven Middleton-Lowes,M,50,Raw,M_MR_3_AWPC,106.2,110,220,235,245,,245,142.5,160,-177.5,,160,247.5,-276,276,,276,681,SBD,,UK
1,Peter Gunn,M,55,Raw,M_MR_4_AWPC,95.6,100,125,135,-147.5,,135,85,90,92.5,,92.5,160,170,175,,175,402.5,SBD,,UK
1,Mark Johnson #1,M,60,Raw,M_MR_5_AWPC,98.95,100,130,140,150,,150,85,92.5,-97.5,,92.5,180,190,192.5,,192.5,435,SBD,,UK
1,Peter Oram,M,67,Raw,M_MR_6_AWPC,88.3,90,115,125,135,,135,75,80,-85,,80,195,205,215,,215,430,SBD,,UK
NS,Martin Roberts #2,M,36,Raw,M_OR_AWPC,,125,,,,,,,,,,,,,,,,,SBD,,UK
1,Chris Simpson #1,M,33,Raw,M_OR_AWPC,66.85,67.5,-135,-135,135,,135,82.5,87.5,-92.5,,87.5,160,172.5,185,,185,407.5,SBD,,UK
1,David Dorrell,M,31,Raw,M_OR_AWPC,74.7,75,155,165,-175,,165,107.5,112.5,120,,120,160,175,-185,,175,460,SBD,,UK
2,Tom Brindley,M,26,Raw,M_OR_AWPC,74.9,75,130,137.5,142.5,,142.5,85,90,92.5,,92.5,160,170,-177.5,,170,405,SBD,,UK
1,James Baldwin #2,M,24,Raw,M_OR_AWPC,81.95,82.5,152.5,160,165,,165,115,122.5,-127.5,,122.5,200,205,212.5,,212.5,500,SBD,,UK
2,David Gould,M,36,Raw,M_OR_AWPC,82.4,82.5,145,152.5,160,,160,105,115,-120,,115,180,192.5,205,,205,480,SBD,,UK
3,Jethpal Nijjar,M,28,Raw,M_OR_AWPC,79.65,82.5,160,172.5,180,,180,92.5,97.5,-102.5,,97.5,180,192.5,200,,200,477.5,SBD,,UK
1,Peter Byrne,M,29,Raw,M_OR_AWPC,90,90,185,202.5,-205,,202.5,130,142.5,145,,145,222.5,237.5,240,,240,587.5,SBD,,UK
2,Denzil Cruz,M,26,Raw,M_OR_AWPC,87.9,90,162.5,172.5,180,,180,125,132.5,140,,140,190,210,-220,,210,530,SBD,,UK
3,Jacob Jabbari,M,28,Raw,M_OR_AWPC,86.35,90,155,-165,165,,165,105,110,115,,115,195,202.5,212.5,,212.5,492.5,SBD,,UK
1,Alistair Mitchell,M,31,Raw,M_OR_AWPC,94.6,100,200,215,-220,,215,105,115,120,,120,220,245,260,,260,595,SBD,,UK
2,Jake Henderson #3,M,28,Raw,M_OR_AWPC,96.1,100,150,160,170,,170,120,130,-135,,130,210,220,-230,,220,520,SBD,,UK
1,Liam Calvert,M,32,Raw,M_OR_AWPC,122.05,125,145,160,170,,170,115,130,-140,,130,182.5,-202.5,202.5,,202.5,502.5,SBD,,UK
1,Frankie Kemp,M,28,Raw,M_OR_AWPC,147.5,140+,245,262.5,-280,,262.5,187.5,195,200,-208,200,260,272.5,-282.5,,272.5,735,SBD,,UK
1,Ocean Davies,M,13,Raw,M_TR_1_AWPC,38.6,52,57.5,62.5,67.5,,67.5,-32.5,35,37.5,,37.5,90,95,97.5,,97.5,202.5,SBD,,UK
1,Gregory Pearson,M,13,Raw,M_TR_1_AWPC,65.3,67.5,142.5,152.5,-160,,152.5,102.5,105,110,,110,-165,178,182.5,,182.5,445,SBD,,UK
1,Jai Bahia,M,15,Raw,M_TR_1_AWPC,82.15,82.5,-125,125,137.5,,137.5,85,90,95,,95,165,177.5,182.5,,182.5,415,SBD,,
1,Jaskaran Kaloya,M,17,Raw,M_TR_2_AWPC,65.5,67.5,100,110,117.5,,117.5,65,-70,70,,70,135,145,150,,150,337.5,SBD,2003-09-07,
1,Charlie Dimmock,M,19,Raw,M_TR_3_AWPC,65.8,67.5,172.5,-180,-180,,172.5,100,-110,-112.5,,100,200,,,,200,472.5,SBD,,UK
2,Finlay Woolway,M,19,Raw,M_TR_3_AWPC,65.5,67.5,107.5,115,120,,120,65,72.5,-80,,72.5,135,-145,-145,,135,327.5,SBD,,UK
NS,Aiden Seargeant,M,20,Wraps,M_JCR_AWPC,,82.5,,,,,,,,,,,,,,,,,SBD,,UK
NS,Jacob Hawkins,M,21,Wraps,M_JCR_AWPC,,90,,,,,,,,,,,,,,,,,SBD,,UK
NS,Michael Barsoom,M,21,Wraps,M_JCR_AWPC,,90,,,,,,,,,,,,,,,,,SBD,,Egypt
1,Dylan Cilliers,M,22,Wraps,M_JCR_AWPC,76.9,82.5,207.5,217.5,222.5,,222.5,120,127.5,-130,,127.5,260.5,-275,-275,,260.5,610.5,SBD,,UK
2,Charles Stephens,M,23,Wraps,M_JCR_AWPC,81.5,82.5,207.5,-217.5,217.5,,217.5,110,120,-125,,120,210,-220,,,210,547.5,SBD,,UK
1,Arjun Singh Mandeir,M,21,Wraps,M_JCR_AWPC,89.3,90,165,172.5,177.5,,177.5,127.5,132.5,-137.5,,132.5,225,232.5,240,,240,550,SBD,,
1,Cole Edwards #4,M,21,Raw,M_JCR_AWPC,89.1,90,185,195,-202.5,,195,110,112.5,117.5,,117.5,205,217.5,-222.5,,217.5,530,SBD,,UK
2,Sean Green #1,M,23,Wraps,M_JCR_AWPC,89.8,90,177.5,190,-195,,190,92.5,97.5,-105,,97.5,210,220,-225,,220,507.5,SBD,,UK
1,Sam Ounsworth,M,23,Wraps,M_JCR_AWPC,98.2,100,245,-260,260,,260,165,175,-182.5,,175,260,280,287.5,,287.5,722.5,SBD,,UK
2,Cejai Lindsay,M,23,Wraps,M_JCR_AWPC,97.75,100,220,235,245,,245,175,-185.5,-185.5,,175,220,240,260,,260,680,SBD,,UK
1,Thomas West #2,M,23,Wraps,M_JCR_AWPC,105.9,110,225,240,-247.5,,240,125,135,-137.5,,135,252.5,262.5,-275,,262.5,637.5,SBD,,UK
1,Marcus Shave,M,23,Wraps,M_JCR_AWPC,137.1,140,280,300,-310,,300,135,142.5,147.5,,147.5,260,-272.5,272.5,,272.5,720,SBD,,UK
1,Marcus Nye,M,17,Wraps,M_TCR_2_AWPC,71.3,75,145,152.5,160,,160,97.5,102.5,-107.5,,102.5,180,190,195,,195,457.5,SBD,,UK
1,Patrik Backor,M,17,Wraps,M_TCR_2_AWPC,80.7,82.5,-207.5,-207.5,207.5,,207.5,122.5,-127.5,-130,,122.5,-200,200,-207.5,,200,530,SBD,,UK
2,Alistair Hashemi,M,17,Wraps,M_TCR_2_AWPC,80.5,82.5,127.5,135,-140,,135,77.5,85,90,,90,177.5,185,190,,190,415,SBD,,UK
NS,Harry Whitburn,M,18,Wraps,M_TCR_3_AWPC,,110,,,,,,,,,,,,,,,,,SBD,,UK
NS,Matthew Slater #2,M,18,Wraps,M_TCR_3_AWPC,,75,,,,,,,,,,,,,,,,,SBD,,UK
1,Tyler Elliott #1,M,19,Wraps,M_TCR_3_AWPC,87.1,90,-230,230,240,,240,135,142.5,-150,,142.5,-220,220,-240,,220,602.5,SBD,,UK
2,Conner McCulloch,M,18,Wraps,M_TCR_3_AWPC,83.6,90,202.5,-212.5,212.5,,212.5,105,110,-112.5,,110,190,202.5,-207.5,,202.5,525,SBD,,UK
1,Lukas Jusko,M,19,Wraps,M_TCR_3_AWPC,109.25,110,290,310,-330,,310,120,130,-140,,130,260,280,-300,,280,720,SBD,,UK
2,Abdel Maamo,M,18,Wraps,M_TCR_3_AWPC,108.75,110,240,250,260,,260,130,-137.5,137.5,,137.5,220,235,242.5,,242.5,640,SBD,,UK
3,George Purchase,M,19,Wraps,M_TCR_3_AWPC,109.6,110,205,217.5,-227.5,,217.5,105,115,-122.5,,115,187.5,207.5,217.5,,217.5,550,SBD,,UK
1,Brandon Jackson #1,M,18,Wraps,M_TCR_3_AWPC,123.2,125,225,240,-250,,240,95,105,-110,,105,155,165,172.5,,172.5,517.5,SBD,,UK
1,Karl Williams,M,41,Raw,M_MR_1_WPC,81.25,82.5,160,170,180,,180,90,100,-105,,100,190,200,205,,205,485,SBD,,UK
1,Gareth James,M,41,Raw,M_MR_1_WPC,96.95,100,170,180,190,,190,115,125,-130,,125,245,255,260,,260,575,SBD,,UK
1,Darryl Triance,M,45,Raw,M_MR_2_WPC,89.45,90,195,210,-220.5,,210,110,120,,,120,240,250,-257.5,,250,580,SBD,,UK
1,Darren Hammond,M,49,Raw,M_MR_2_WPC,115,125,210,230,-245,,230,120,132.5,-142.5,,132.5,270,-285,,,270,632.5,SBD,,UK
1,Tom Mcmutrie,M,54,Raw,M_MR_3_WPC,120.35,125,215,230,-240,,230,150,160,-170,,160,260,275,-290,,275,665,SBD,,UK
1,Lukas Solak,M,25,Raw,M_OR_WPC,66.95,67.5,-185,185,-195,,185,110,120,-125,,120,210,220,-225,,220,525,SBD,,
1,Ali Hasanzade,M,30,Raw,M_OR_WPC,89.75,90,215,227.5,232.5,,232.5,135,142.5,145,,145,220,235,-250,,235,612.5,SBD,,
2,Piotr Sulecki,M,32,Raw,M_OR_WPC,88.55,90,200,210,-222.5,,210,135,142.5,-145,,142.5,210,222.5,232.5,,232.5,585,SBD,,UK
3,Darryl Triance,M,45,Raw,M_OR_WPC,89.45,90,195,210,-220.5,,210,110,120,,,120,240,250,-257.5,,250,580,SBD,,UK
1,Jordan Gretton-Doidge,M,32,Raw,M_OR_WPC,99.85,100,180,200,212.5,,212.5,140,160,180,,180,270,290,-300,,290,682.5,SBD,,UK
1,Stephen Fraher,M,35,Raw,M_OR_WPC,118.95,125,265,280,287.5,,287.5,-150,155,162.5,,162.5,270,280,-300,,280,730,SBD,,UK
2,Darren Hammond,M,49,Raw,M_OR_WPC,115,125,210,230,-245,,230,120,132.5,-142.5,,132.5,270,-285,,,270,632.5,SBD,,UK
1,Gregory Pearson,M,13,Raw,M_TR_1_WPC,66,67.5,145.5,152.5,155,,155,105,110,-112.5,,110,171,177.5,185,,185,450,SBD,,UK
NS,Marcus Collins #1,M,23,Wraps,M_JCR_WPC,,100,,,,,,,,,,,,,,,,,SBD,,UK
1,Keenan Freer,M,22,Wraps,M_JCR_WPC,81.8,82.5,245,270,-295,,270,125,-145,,,125,260,-285,287.5,,287.5,682.5,SBD,,UK
2,James Mackie,M,20,Wraps,M_JCR_WPC,80.45,82.5,80,,,,80,-173,173,-177.5,,173,150,215,-247.5,,215,468,SBD,,UK
1,Jake Bailey,M,20,Wraps,M_JCR_WPC,89.05,90,250,265,272.5,,272.5,175,182.5,187.5,,187.5,240,255,265,,265,725,SBD,,UK
1,Tom Croxton,M,23,Wraps,M_JCR_WPC,121.35,125,285,305,310,,310,185,-200,-200,,185,295,320,-330,,320,815,SBD,,UK
1,Tzvetam Ignatov,M,19,Wraps,M_TCR_3_WPC,118.5,125,240,267.5,-285,,267.5,145,-157.5,157.5,,157.5,265,285,302.5,-312.5,302.5,727.5,SBD,,
NS,Chris Marshall #2,M,43,Wraps,M_MCR_1_WPC,,100,,,,,,,,,,,,,,,,,SBD,,UK
NS,Darren McCormac,M,44,Wraps,M_MCR_1_WPC,,140,,,,,,,,,,,,,,,,,SBD,,UK
1,Ricky Moore,M,41,Wraps,M_MCR_1_WPC,89.95,90,255,-270,-270,,255,185,192.5,-197.5,,192.5,265,275,-280,,275,722.5,SBD,,UK
2,Lee Smith #9,M,44,Wraps,M_MCR_1_WPC,88.55,90,167.5,185,200,,200,125,132.5,-137.5,,132.5,210,220,225,,225,557.5,SBD,,UK
1,Paul Coates,M,42,Wraps,M_MCR_1_WPC,93.65,100,225,245,-255,,245,147.5,155,165,,165,247.5,260,280,,280,690,SBD,,UK
2,Keith Evans #1,M,43,Wraps,M_MCR_1_WPC,100,100,240,255,-260,,255,-170,183,-190,,183,220,240,250,,250,688,SBD,,UK
1,Joe Martin #1,M,42,Wraps,M_MCR_1_WPC,107.5,110,-270,270,290,,290,182.5,192.5,200,,200,270,290,310,,310,800,SBD,,UK
2,William McNeil,M,44,Wraps,M_MCR_1_WPC,109.9,110,180,200,-210,,200,180,190,-200,,190,230,240,250,,250,640,SBD,,UK
NS,Tommy Cuff,M,46,Wraps,M_MCR_2_WPC,,110,,,,,,,,,,,,,,,,,SBD,,UK
NS,Martin Cooke,M,51,Wraps,M_MCR_3_WPC,,140+,,,,,,,,,,,,,,,,,SBD,,UK
1,Darren Walker,M,53,Wraps,M_MCR_3_WPC,98,100,220,240,-252.5,,240,140,150,-155,,150,262.5,275,286,-287.5,286,676,SBD,,UK
1,Jason Swalwell,M,50,Wraps,M_MCR_3_WPC,121.9,125,210,222.5,232.5,,232.5,170,175,180,,180,281,290,302.5,,302.5,715,SBD,,UK
1,Kevin Smith #21,M,58,Wraps,M_MCR_4_WPC,88.65,90,145,155,165,,165,100,105,110,,110,200,215,225,,225,500,SBD,,UK
NS,Andrew Riddiford,M,32,Wraps,M_OCR_WPC,,110,,,,,,,,,,,,,,,,,SBD,,UK
NS,Brett Brooks,M,28,Wraps,M_OCR_WPC,,125,,,,,,,,,,,,,,,,,SBD,,UK
NS,David-John Williamson,M,32,Wraps,M_OCR_WPC,,100,,,,,,,,,,,,,,,,,SBD,,UK
NS,Ignacio Badiola,M,31,Wraps,M_OCR_WPC,,90,,,,,,,,,,,,,,,,,SBD,,UK
NS,Mike Jones #1,M,28,Wraps,M_OCR_WPC,,110,,,,,,,,,,,,,,,,,SBD,,UK
NS,Samuel Pitchford,M,30,Wraps,M_OCR_WPC,,140,,,,,,,,,,,,,,,,,SBD,,UK
NS,Tom Hudson,M,25,Wraps,M_OCR_WPC,,110,,,,,,,,,,,,,,,,,SBD,,UK
1,Nathan Bage,M,29,Wraps,M_OCR_WPC,68.85,75,212.5,230,240,,240,145,155,160,,160,210,230,240,,240,640,SBD,,UK
1,Richard Armstrong,M,28,Wraps,M_OCR_WPC,81.85,82.5,210,240,250,,250,150,160,170,,170,280,-305,305,,305,725,SBD,,UK
2,Alireza Herfedoust,M,34,Wraps,M_OCR_WPC,78.95,82.5,265,-280,280,,280,140,147.5,152.5,,152.5,245,267.5,-280,,267.5,700,SBD,,UK
1,Jacek Toczydlowski,M,39,Wraps,M_OCR_WPC,99.65,100,275,-300,-300,,275,162.5,172.5,,,172.5,260,-277.5,-277.5,,260,707.5,SBD,,UK
2,Danny Jones #2,M,25,Wraps,M_OCR_WPC,99.45,100,255,270,280,,280,150,160,165,,165,240,257.5,,,257.5,702.5,SBD,,UK
3,Luke Nash,M,34,Wraps,M_OCR_WPC,94.25,100,230,250,265,,265,150,165,167.5,,167.5,225,250,260,,260,692.5,SBD,,UK
4,Stuart Barker,M,38,Wraps,M_OCR_WPC,96.8,100,245,-255,-255,,245,160,-165,-170,,160,245,-255,255,,255,660,SBD,,UK
5,Richard Ingham,M,30,Wraps,M_OCR_WPC,97.75,100,230,240,250,,250,150,-160,-160,,150,250,260,-270,,260,660,SBD,,UK
6,Philip Devlin,M,28,Wraps,M_OCR_WPC,97.95,100,-200,200,-215,,200,160,170,180,,180,260,270,-285,,270,650,SBD,,UK
7,Nicolae Colta,M,25,Wraps,M_OCR_WPC,97.9,100,-220,220,-237.5,,220,160,167.5,170,,170,240,-250,250,,250,640,SBD,,Moldova
1,Matthew Aldrich,M,30,Wraps,M_OCR_WPC,109.7,110,230,245,-250,,245,155,165,172.5,,172.5,250,272.5,,,272.5,690,SBD,,UK
2,Cian Fulham,M,24,Wraps,M_OCR_WPC,103.75,110,245,-260,-260,,245,140,150,155,,155,245,260,270,,270,670,SBD,,UK
DQ,Rhys Browning,M,31,Wraps,M_OCR_WPC,107.65,110,310,320,-330,,320,190,-200,,,190,-340,-340,,,,,SBD,,UK
1,Tom Griffiths #1,M,27,Wraps,M_OCR_WPC,120.9,125,300,325,340,,340,192.5,200,-205,,200,305,330,-350,,330,870,SBD,,UK
2,Byron George,M,25,Wraps,M_OCR_WPC,115.9,125,320,345,360,,360,175,190,-200,,190,270,290,305,,305,855,SBD,,UK
3,Mateusz Andrik,M,29,Wraps,M_OCR_WPC,123.35,125,280,300,-320,,300,165,175,185,,185,290,317.5,-320,,317.5,802.5,SBD,,
4,Nathan Wickham,M,28,Wraps,M_OCR_WPC,124.15,125,260,280,300,,300,190,205,-210,,205,285,297.5,-307.5,,297.5,802.5,SBD,,UK
5,Jack Morecroft,M,29,Wraps,M_OCR_WPC,119.15,125,290,305,-320,,305,172.5,182.5,-190,,182.5,270,-290,300,,300,787.5,SBD,,UK
6,Marek Jedynak,M,27,Wraps,M_OCR_WPC,123.6,125,265,285,-300,,285,165,175,190,,190,250,270,290,,290,765,SBD,,
7,Craig Marshall,M,31,Wraps,M_OCR_WPC,124.4,125,290,-315,315,,315,180,187.5,195,,195,240,-255,-255,,240,750,SBD,,UK
8,Conor Harris,M,23,Wraps,M_OCR_WPC,114.5,125,-245,245,260,,260,157.5,165,-172.5,,165,285,300,-310,,300,725,SBD,,UK
1,Aaron Hopkins #1,M,30,Wraps,M_OCR_WPC,133.1,140,350,365,375,,375,180,200,207.5,,207.5,300,317.5,330,,330,912.5,SBD,,UK
1,Artur Chrząszcz,M,38,Wraps,M_OCR_WPC,144.25,140+,410,-430,-430,,410,220,230,-235,,230,320,342.5,-350,,342.5,982.5,SBD,,
1,Josie Thomas #2,F,40,Raw,F_MR_1_AWPC,66.95,67.5,,,,,,72.5,77.5,80,,80,,,,,,80,B,,UK
1,Sal Lack,F,44,Raw,F_MR_1_AWPC,89.7,90,,,,,,75,77.5,80,-81,80,,,,,,80,B,,UK
1,Tess O'Flaherty,F,54,Raw,F_MR_3_AWPC,55.2,56,,,,,,62.5,-65,65,-67.5,65,,,,,,65,B,,UK
1,Michelle Williams #2,F,52,Raw,F_MR_3_AWPC,101.45,90+,,,,,,65,-70,70,,70,,,,,,70,B,,UK
1,Bev Johnson,F,56,Raw,F_MR_4_AWPC,67.25,67.5,,,,,,50,52.5,-55,,52.5,,,,,,52.5,B,,UK
1,Louise Picknett,F,58,Raw,F_MR_4_AWPC,82.35,82.5,,,,,,42.5,45,-47.5,,45,,,,,,45,B,,UK
1,Catherine Wass,F,64,Raw,F_MR_5_AWPC,74.15,75,,,,,,57.5,62.5,67.5,,67.5,,,,,,67.5,B,,UK
DQ,Georgina Hodson,F,36,Raw,F_OR_AWPC,52,52,,,,,,,,,,,,,,,,,B,,UK
1,Pamela Fellows,F,32,Raw,F_OR_AWPC,74.75,75,,,,,,85,-92.5,-92.5,,85,,,,,,85,B,,UK
2,Natalie Johnson,F,38,Raw,F_OR_AWPC,74.95,75,,,,,,72.5,77.5,80,,80,,,,,,80,B,,UK
DQ,Katie Rourke,F,26,Raw,F_OR_AWPC,80.65,82.5,,,,,,-90,-90,,,,,,,,,,B,,UK
1,Robyn Vaughan,F,29,Raw,F_OR_AWPC,101.65,90+,,,,,,120,-125,125,,125,,,,,,125,B,,UK
2,Alex Young #2,F,30,Raw,F_OR_AWPC,126.1,90+,,,,,,92.5,-97.5,-97.5,,92.5,,,,,,92.5,B,,UK
3,Sarah Knight,F,37,Raw,F_OR_AWPC,105.45,90+,,,,,,77.5,82.5,87.5,90.5,87.5,,,,,,87.5,B,,UK
NS,Holly Robinson,F,22,Raw,F_JR_AWPC,,60,,,,,,,,,,,,,,,,,D,,UK
1,Edna Ogbee,F,23,Raw,F_JR_AWPC,82.1,82.5,,,,,,,,,,,222.5,-230,,,222.5,222.5,D,,UK
1,Mysty Hayes,F,22,Raw,F_JR_AWPC,97.65,90+,,,,,,,,,,,125,132.5,-140,,132.5,132.5,D,,UK
1,Sal Lack,F,44,Raw,F_MR_1_AWPC,89.7,90,,,,,,,,,,,110,115,120,,120,120,D,,UK
1,Claire Rush,F,47,Raw,F_MR_2_AWPC,171.05,90+,,,,,,,,,,,150,160,165,,165,165,D,,UK
1,Nia Golding,F,50,Raw,F_MR_3_AWPC,68.65,75,,,,,,,,,,,140,160,175,-183,175,175,D,,UK
1,Michelle Williams #2,F,52,Raw,F_MR_3_AWPC,101.45,90+,,,,,,,,,,,140,165,175,-185,175,175,D,,UK
NS,Gail Dodd,F,64,Raw,F_MR_5_AWPC,,67.5,,,,,,,,,,,,,,,,,D,,UK
NS,Claire Comiskey,F,38,Raw,F_OR_AWPC,,67.5,,,,,,,,,,,,,,,,,D,,UK
1,Georgina Hodson,F,36,Raw,F_OR_AWPC,52,52,,,,,,,,,,,97.5,110,120,,120,120,D,,UK
1,Rachel Normington,F,30,Multi-ply,F_OEM_WPC,86.25,90,,,,,,,,,,,175,187.5,-195,,187.5,187.5,D,,UK
NS,James Mackie,M,20,Raw,M_JR_WPC,,82.5,,,,,,,,,,,,,,,,,B,,UK
1,Will Watson,M,21,Raw,M_JR_WPC,80.45,82.5,,,,,,127.5,132.5,135,,135,,,,,,135,B,,UK
1,Billy Mareya,M,42,Raw,M_MR_1_AWPC,110,110,,,,,,182.5,187.5,-195,,187.5,,,,,,187.5,B,,UK
1,Alexander Benik,M,46,Raw,M_MR_2_WPC,89.55,90,,,,,,160,167.5,170,,170,,,,,,170,B,,Germany
2,Jamie Bailey #1,M,47,Raw,M_MR_2_WPC,89.1,90,,,,,,150,160,-162.5,,160,,,,,,160,B,,UK
NS,Paul Morgan,M,48,Raw,M_MR_2_AWPC,,110,,,,,,,,,,,,,,,,,B,,UK
1,David Gibson #2,M,54,Raw,M_MR_3_WPC,84,90,,,,,,120,127.5,135,,135,,,,,,135,B,,UK
1,Philip Pugh,M,53,Raw,M_MR_3_WPC,128.1,140,,,,,,180,192.5,-200,,192.5,,,,,,192.5,B,,UK
1,Andrew Rae,M,54,Raw,M_MR_3_AWPC,69.6,75,,,,,,95,97.5,-100,,97.5,,,,,,97.5,B,,UK
1,John MacDonald #3,M,54,Raw,M_MR_3_AWPC,88.85,90,,,,,,137.5,142.5,147.5,,147.5,,,,,,147.5,B,,UK
1,Richard Baker #2,M,51,Raw,M_MR_3_AWPC,109.6,110,,,,,,165,,,,165,,,,,,165,B,,UK
1,Stuart Hamilton,M,57,Raw,M_MR_4_WPC,89,90,,,,,,160,-170,-170,,160,,,,,,160,B,,UK
1,Barrie Bedford,M,63,Raw,M_MR_5_WPC,88,90,,,,,,105,115,120,,120,,,,,,120,B,,UK
1,Rik Davison,M,60,Raw,M_MR_5_WPC,98.65,100,,,,,,-162.5,165,170,,170,,,,,,170,B,,UK
1,Paul Edmonds,M,61,Raw,M_MR_5_WPC,123,125,,,,,,182.5,192.5,202.5,-205,202.5,,,,,,202.5,B,,UK
1,Rob Hunter,M,63,Raw,M_MR_5_AWPC,95.3,100,,,,,,100,105,-110,,105,,,,,,105,B,,UK
1,Stephen Johnson #1,M,74,Raw,M_MR_7_AWPC,80.15,82.5,,,,,,55,60,-65,,60,,,,,,60,B,,UK
1,Simon Newton,M,37,Raw,M_OR_WPC,82.2,82.5,,,,,,150,160,165,,165,,,,,,165,B,,UK
2,Chris Francis #1,M,30,Raw,M_OR_WPC,82.15,82.5,,,,,,122.5,132.5,-140,,132.5,,,,,,132.5,B,,UK
1,Attila Gembiczki,M,35,Raw,M_OR_WPC,88.8,90,,,,,,190,200,-205,,200,,,,,,200,B,,Hungary
2,Krzysztof Mocek,M,36,Raw,M_OR_WPC,89.2,90,,,,,,160,-172.5,-172.5,,160,,,,,,160,B,,
3,Javeno McClean,M,36,Raw,M_OR_WPC,89.4,90,,,,,,-125,125,-140,,125,,,,,,125,B,,UK
2,Matthew Brown #14,M,35,Raw,M_OR_WPC,97.25,100,,,,,,145,155,-162.5,,155,,,,,,155,B,,UK
NS,Andrew Whitaker,M,38,Raw,M_OR_AWPC,,110,,,,,,,,,,,,,,,,,B,,UK
1,Vladimir Agasaryan,M,29,Raw,M_OR_AWPC,73.2,75,,,,,,175,180,182.5,185,182.5,,,,,,182.5,B,,UK
1,Martin Cockcroft,M,38,Raw,M_OR_AWPC,89.3,90,,,,,,182.5,195,-200,,195,,,,,,195,B,,UK
2,Jordan Harris #2,M,27,Raw,M_OR_AWPC,89.2,90,,,,,,115,120,-130,,120,,,,,,120,B,,UK
1,Warren Whitaker,M,34,Raw,M_OR_AWPC,118.5,125,,,,,,185,195,200,,200,,,,,,200,B,,UK
1,Nicolae Colta,M,25,Raw,M_OR_WPC,97.9,100,,,,,,170,,,,170,,,,,,170,B,,
1,Sam Nottage,M,20,Single-ply,M_JES_AWPC,118.3,125,,,,,,220,-235,-235,,220,,,,,,220,B,,UK
1,David Gibson #2,M,54,Single-ply,M_MES_3_WPC,84,90,,,,,,145,-150,-150,,145,,,,,,145,B,,UK
1,Rob Preston,M,52,Single-ply,M_MES_3_WPC,97.75,100,,,,,,225,235,245,-255,245,,,,,,245,B,,UK
1,Richard Evans,M,54,Single-ply,M_MES_3_AWPC,160.5,140+,,,,,,170,-182.5,182.5,-185,182.5,,,,,,182.5,B,,UK
1,Kevin Maher,M,60,Multi-ply,M_MEM_5_WPC,105.6,110,,,,,,200,210,220,,220,,,,,,220,B,,UK
NS,James Mackie,M,20,Raw,M_JR_WPC,,82.5,,,,,,,,,,,,,,,,,D,,UK
1,Dimitry Rakshaznov,M,23,Raw,M_JR_AWPC,82.4,82.5,,,,,,,,,,,225,235,-250,,235,235,D,,
1,Shane Gwyther,M,20,Raw,M_JR_AWPC,93.9,100,,,,,,,,,,,220,240,-250,,240,240,D,,UK
1,Mark Bromilow,M,41,Raw,M_MR_1_WPC,99.6,100,,,,,,,,,,,292.5,315,327.5,,327.5,327.5,D,,UK
1,Billy Mareya,M,42,Raw,M_MR_1_AWPC,110,110,,,,,,,,,,,285,300,-315,,300,300,D,,UK
1,Andrew Holt,M,49,Raw,M_MR_2_AWPC,81.6,82.5,,,,,,,,,,,240,250,-255,,250,250,D,,UK
1,Keith Nesbitt,M,50,Raw,M_MR_3_WPC,99.45,100,,,,,,,,,,,210,222.5,227.5,,227.5,227.5,D,,UK
1,Philip Pugh,M,53,Raw,M_MR_3_WPC,128.1,140,,,,,,,,,,,227.5,245,252.5,,252.5,252.5,D,,UK
1,Richard Baker #2,M,51,Raw,M_MR_3_AWPC,109.6,110,,,,,,,,,,,265,,,,265,265,D,,UK
2,Paul Baker,M,50,Raw,M_MR_3_AWPC,101.55,110,,,,,,,,,,,140,150,160,,160,160,D,,UK
1,Richard Green #2,M,55,Raw,M_MR_4_AWPC,117.1,125,,,,,,,,,,,220,230,-242.5,,230,230,D,,UK
1,Rik Davison,M,60,Raw,M_MR_5_WPC,98.65,100,,,,,,,,,,,262.5,272.5,-280,,272.5,272.5,D,,UK
NS,Christian Young,M,32,Raw,M_OR_WPC,,75,,,,,,,,,,,,,,,,,D,,UK
1,Javeno McClean,M,36,Raw,M_OR_WPC,89.4,90,,,,,,,,,,,-230,-240,240,,240,240,D,,UK
1,David Hodson,M,36,Raw,M_OR_AWPC,75,75,,,,,,,,,,,210,230,-245,,230,230,D,,UK
1,Adam Walkowycz,M,17,Raw,M_TR_2_AWPC,95.55,100,,,,,,,,,,,240,250,-260,,250,250,D,,UK
1,Jason Swalwell,M,50,Raw,M_MR_3_WPC,121.9,125,,,,,,,,,,,302.5,,,,302.5,302.5,D,,UK
1,Nicolae Colta,M,25,Raw,M_OR_WPC,97.9,100,,,,,,,,,,,250,,,,250,250,D,,UK
1,Kelvin Bowles,M,33,Raw,M_OR_WPC,128.75,140,,,,,,,,,,,330,-350,,,330,330,D,,UK
1,Philip Watkins,M,52,Single-ply,M_MES_3_AWPC,89.95,90,,,,,,,,,,,290,305.5,,,305.5,305.5,D,,UK
1,Rik Davison,M,60,Single-ply,M_MES_5_WPC,98.65,100,,,,,,,,,,,245,265,280,,280,280,D,,UK
NS,Imran Khan,M,43,Wraps,M_MCR_1_AWPC,,,,,,,,,,,,,,,,,,,SBD,,UK
1,Simon Moratt,M,41,Wraps,M_MCR_1_AWPC,82.15,82.5,180,192.5,200,,200,125,130,135,,135,225,,,,225,560,SBD,,UK
1,Mark Bowler,M,42,Wraps,M_MCR_1_AWPC,116.95,125,-215,225,240,,240,137.5,,,,137.5,290,,,,290,667.5,SBD,,UK
1,Pete Tryner,M,49,Wraps,M_MCR_2_AWPC,95.45,100,220,237.5,242.5,,242.5,145,150,-152.5,,150,285,,,,285,677.5,SBD,,UK
1,Mark Lawford,M,47,Wraps,M_MCR_2_AWPC,130.5,140,200,225,235,,235,185,,,,185,255,,,,255,675,SBD,,UK
1,Radoslaw Pakulski,M,45,Wraps,M_MCR_2_AWPC,155.8,140+,260,280,300,,300,150,,,,150,290,,,,290,740,SBD,,UK
1,Richard Baker #2,M,51,Wraps,M_MCR_3_AWPC,109.6,110,251,260,-267.5,,260,165,,,,165,265,,,,265,690,SBD,,UK
1,John Miller #1,M,55,Wraps,M_MCR_4_AWPC,94.8,100,125,145,-160,,145,65,75,85,,85,165,,,,165,395,SBD,,UK
NS,Andrew Moyler,M,60,Wraps,M_MCR_5_AWPC,,,,,,,,,,,,,,,,,,,SBD,,UK
1,Kevin Payne #2,M,64,Wraps,M_MCR_5_AWPC,74,75,110,120,127.5,,127.5,75,80,85,,85,180,,,,180,392.5,SBD,,UK
1,Neil Bacon,M,64,Wraps,M_MCR_5_AWPC,80.5,82.5,110,120,127.5,,127.5,102.5,-110,110,-115,110,152.5,,,,152.5,390,SBD,,UK
1,Richard Kemp,M,61,Wraps,M_MCR_5_AWPC,94.5,100,135,145,155,,155,85,-92.5,92.5,,92.5,215,,,,215,462.5,SBD,,UK
1,John Dolan #2,M,65,Wraps,M_MCR_6_AWPC,98.65,100,112.5,-122.5,-132.5,,112.5,85,90,-92.5,,90,140,,,,140,342.5,SBD,,UK
NS,Courtney Hanley,M,29,Wraps,M_OCR_AWPC,,,,,,,,,,,,,,,,,,,SBD,,UK
NS,Frank Rodriguez #1,M,38,Wraps,M_OCR_AWPC,,,,,,,,,,,,,,,,,,,SBD,,UK
NS,Jin-Ho Jeong,M,29,Wraps,M_OCR_AWPC,,,,,,,,,,,,,,,,,,,SBD,,UK
NS,Thomas Kenyon,M,28,Wraps,M_OCR_AWPC,,,,,,,,,,,,,,,,,,,SBD,,UK
1,Zeeshan Naveed,M,24,Wraps,M_OCR_AWPC,69.85,75,175,-185,-185,,175,80,90,95,,95,210,,,,210,480,SBD,,UK
1,Alex Ayres,M,29,Wraps,M_OCR_AWPC,81.6,82.5,240,255,265,,265,160,170,-175,,170,270,,,,270,705,SBD,,UK
2,Robert Clark,M,34,Wraps,M_OCR_AWPC,82.5,82.5,210,225,230,,230,130,140,-145,,140,250,,,,250,620,SBD,,UK
1,Emre Avsar,M,29,Raw,M_OCR_AWPC,82,82.5,200,210,220,,220,120,130,135,,135,225,,,,225,580,SBD,,Switzerland
3,Ashley St Leger,M,35,Wraps,M_OCR_AWPC,82.2,82.5,200,215,225,,225,135,145,-150,,145,205,,,,205,575,SBD,,UK
4,Ben Parkinson #1,M,28,Wraps,M_OCR_AWPC,82.25,82.5,190,200,-210,,200,120,125,-130,,125,215,,,,215,540,SBD,,UK
1,Frazer Sargordi-Marriott,M,31,Wraps,M_OCR_AWPC,89.9,90,225,235,245,,245,142.5,150,155,,155,250,,,,250,650,SBD,,UK
2,Luther Nzinga,M,30,Wraps,M_OCR_AWPC,90,90,237.5,245,-250,,245,135,145,150,,150,247.5,,,,247.5,642.5,SBD,,UK
3,Scott Webber,M,34,Wraps,M_OCR_AWPC,89.2,90,190,195,,,195,155,162.5,,,162.5,215,,,,215,572.5,SBD,,UK
1,Pete Tryner,M,49,Wraps,M_OCR_AWPC,95.45,100,220,237.5,242.5,,242.5,145,150,-152.5,,150,285,,,,285,677.5,SBD,,UK
2,William Harkin,M,35,Wraps,M_OCR_AWPC,95.75,100,235,245,255,,255,150,160,-165,,160,252.5,,,,252.5,667.5,SBD,,UK
3,Wojciech Szymaszczyk,M,31,Wraps,M_OCR_AWPC,93,100,200,220,-235,,220,120,130,135,,135,220,240,,,240,595,SBD,,UK
1,John Marsden #1,M,36,Wraps,M_OCR_AWPC,109.5,110,300,315,322.5,,322.5,182.5,,,,182.5,310,,,,310,815,SBD,,UK
2,Doug Arnold #1,M,34,Wraps,M_OCR_AWPC,105.4,110,265,285,300,,300,150,,,,150,305,,,,305,755,SBD,,UK
3,Chris Brown #2,M,38,Wraps,M_OCR_AWPC,106.75,110,235,250,260,,260,172.5,,,,172.5,282.5,,,,282.5,715,SBD,,UK
4,Ben Thornes,M,34,Wraps,M_OCR_AWPC,104.15,110,247.5,262.5,-270,,262.5,142.5,,,,142.5,300,,,,300,705,SBD,,UK
1,Tom Inglis,M,26,Wraps,M_OCR_AWPC,123.8,125,335,375,400,,400,190,,,,190,310,,,,310,900,SBD,,UK
2,William Newton #1,M,35,Wraps,M_OCR_AWPC,121.65,125,280,300,310,,310,177.5,,,,177.5,342.5,,,,342.5,830,SBD,,UK
3,Angus Craddock,M,30,Wraps,M_OCR_AWPC,122.25,125,200,215,222.5,,222.5,142.5,,,,142.5,240,,,,240,605,SBD,,UK
4,David Thomas #17,M,38,Wraps,M_OCR_AWPC,123.1,125,215,227.5,240,,240,125,,,,125,215,,,,215,580,SBD,,UK
1,Kane Francis,M,26,Wraps,M_OCR_AWPC,138.15,140,315,335,350,,350,190,,,,190,320,,,,320,860,SBD,,UK
